EESchema Schematic File Version 2
LIBS:power
LIBS:device
LIBS:transistors
LIBS:conn
LIBS:linear
LIBS:regul
LIBS:74xx
LIBS:cmos4000
LIBS:adc-dac
LIBS:memory
LIBS:xilinx
LIBS:microcontrollers
LIBS:dsp
LIBS:microchip
LIBS:analog_switches
LIBS:motorola
LIBS:texas
LIBS:intel
LIBS:audio
LIBS:interface
LIBS:digital-audio
LIBS:philips
LIBS:display
LIBS:cypress
LIBS:siliconi
LIBS:opto
LIBS:atmel
LIBS:contrib
LIBS:valves
LIBS:Pickit-cache
EELAYER 25 0
EELAYER END
$Descr A3 16535 11693
encoding utf-8
Sheet 1 1
Title "Pickit 3"
Date "2015-12-23"
Rev "1"
Comp ""
Comment1 ""
Comment2 ""
Comment3 ""
Comment4 ""
$EndDescr
$Comp
L PIC24FJ256GB106 U3
U 1 1 567AA37D
P 4310 2970
F 0 "U3" H 3130 4070 60  0000 C CNB
F 1 "PIC24FJ256GB106" H 4335 2895 60  0000 C CNB
F 2 "Housings_QFP:TQFP-64_10x10mm_Pitch0.5mm" H 5235 2295 60  0001 C CNN
F 3 "" H 5235 2295 60  0000 C CNN
	1    4310 2970
	1    0    0    -1  
$EndComp
$Comp
L CONN_01X06 P1
U 1 1 567AA570
P 1090 2530
F 0 "P1" H 1090 2880 50  0000 C CNN
F 1 "CONN_01X06" V 1190 2530 50  0000 C CNN
F 2 "Pin_Headers:Pin_Header_Straight_1x06" H 1090 2530 60  0001 C CNN
F 3 "" H 1090 2530 60  0000 C CNN
	1    1090 2530
	-1   0    0    -1  
$EndComp
$Comp
L R R2
U 1 1 567AA73B
P 2140 2895
F 0 "R2" V 2055 2910 50  0000 C CNN
F 1 "10K" V 2140 2895 50  0000 C CNN
F 2 "Resistors_SMD:R_0805_HandSoldering" V 2070 2895 30  0001 C CNN
F 3 "" H 2140 2895 30  0000 C CNN
	1    2140 2895
	0    1    1    0   
$EndComp
$Comp
L R R4
U 1 1 567AA7D5
P 2620 2895
F 0 "R4" V 2525 2905 50  0000 C CNN
F 1 "330" V 2620 2895 50  0000 C CNN
F 2 "Resistors_SMD:R_0805_HandSoldering" V 2550 2895 30  0001 C CNN
F 3 "" H 2620 2895 30  0000 C CNN
	1    2620 2895
	0    1    1    0   
$EndComp
$Comp
L USB_OTG P2
U 1 1 567AA9B3
P 6565 3950
F 0 "P2" H 6890 3825 50  0000 C CNN
F 1 "USB_OTG" H 6565 4150 50  0000 C CNN
F 2 "Connect:USB_Mini-B" V 6515 3850 60  0001 C CNN
F 3 "" V 6515 3850 60  0000 C CNN
	1    6565 3950
	1    0    0    1   
$EndComp
$Comp
L Crystal_Small Y1
U 1 1 567AAAE8
P 6520 3095
F 0 "Y1" H 6520 3195 50  0000 C CNN
F 1 "12MHz" H 6525 2935 50  0000 C CNN
F 2 "Crystals:Crystal_HC49-SD_SMD" H 6520 3095 60  0001 C CNN
F 3 "" H 6520 3095 60  0000 C CNN
	1    6520 3095
	1    0    0    -1  
$EndComp
$Comp
L 25LC256 U10
U 1 1 567AAEB3
P 13685 1900
F 0 "U10" H 13685 2225 60  0000 C CNB
F 1 "25LC256" H 13685 1590 60  0000 C CNB
F 2 "Housings_SOIC:SOIC-8_3.9x4.9mm_Pitch1.27mm" H 13685 1900 60  0001 C CNN
F 3 "" H 13685 1900 60  0000 C CNN
	1    13685 1900
	1    0    0    -1  
$EndComp
$Comp
L MCP1525 U5
U 1 1 567AAF02
P 7355 5875
F 0 "U5" H 7355 6075 60  0000 C CNB
F 1 "MCP1525" H 7355 5665 60  0000 C CNB
F 2 "TO_SOT_Packages_SMD:SOT-23_Handsoldering" H 7330 5875 60  0001 C CNN
F 3 "" H 7330 5875 60  0000 C CNN
	1    7355 5875
	1    0    0    -1  
$EndComp
$Comp
L MAX893L U4
U 1 1 567AB2A2
P 7180 9895
F 0 "U4" H 7180 10170 60  0000 C CNB
F 1 "MAX893L" H 7205 9605 60  0000 C CNB
F 2 "Housings_SOIC:SOIC-8_3.9x4.9mm_Pitch1.27mm" H 7230 9820 60  0001 C CNN
F 3 "" H 7230 9820 60  0000 C CNN
	1    7180 9895
	1    0    0    -1  
$EndComp
$Comp
L LTC4411 U2
U 1 1 567AB485
P 3210 9590
F 0 "U2" H 3210 9815 60  0000 C CNB
F 1 "LTC4411" H 3210 9405 60  0000 C CNB
F 2 "TO_SOT_Packages_SMD:SOT-23-5" H 3210 9590 60  0001 C CNN
F 3 "" H 3210 9590 60  0000 C CNN
	1    3210 9590
	1    0    0    -1  
$EndComp
$Comp
L MCP1727 U1
U 1 1 567AB5F4
P 2485 7565
F 0 "U1" H 2485 7865 60  0000 C CNB
F 1 "MCP1727" H 2510 7265 60  0000 C CNB
F 2 "Housings_SOIC:SOIC-8_3.9x4.9mm_Pitch1.27mm" H 2510 7540 60  0001 C CNN
F 3 "" H 2510 7540 60  0000 C CNN
	1    2485 7565
	1    0    0    -1  
$EndComp
$Comp
L CONN_01X06 P3
U 1 1 567AB6D6
P 13075 5860
F 0 "P3" H 13075 6210 50  0000 C CNN
F 1 "CONN_01X06" V 13175 5860 50  0000 C CNN
F 2 "Pin_Headers:Pin_Header_Straight_1x06" H 13075 5860 60  0001 C CNN
F 3 "" H 13075 5860 60  0000 C CNN
	1    13075 5860
	1    0    0    -1  
$EndComp
Text GLabel 12775 5610 0    47   Input ~ 0
VPP_TAR
Text GLabel 12060 5710 0    47   Input ~ 0
VDD_TAR
Text GLabel 12775 5910 0    47   Input ~ 0
ICSP_DAT
Text GLabel 12775 6010 0    47   Input ~ 0
ICSP_CLK
Text GLabel 12775 6110 0    49   Input ~ 0
ICSP_LVP
Wire Wire Line
	12875 5610 12775 5610
Wire Wire Line
	12875 5910 12775 5910
Wire Wire Line
	12875 6010 12775 6010
Wire Wire Line
	12875 6110 12775 6110
$Comp
L GND #PWR01
U 1 1 567ACBAE
P 12290 6255
F 0 "#PWR01" H 12290 6005 50  0001 C CNN
F 1 "GND" H 12290 6105 50  0000 C CNN
F 2 "" H 12290 6255 60  0000 C CNN
F 3 "" H 12290 6255 60  0000 C CNN
	1    12290 6255
	1    0    0    -1  
$EndComp
Wire Wire Line
	12875 5810 12290 5810
Wire Wire Line
	12290 5810 12290 6255
$Comp
L R R39
U 1 1 567ACDFD
P 12115 6025
F 0 "R39" V 12015 6035 50  0000 C CNN
F 1 "1k" V 12115 6025 50  0000 C CNN
F 2 "Resistors_SMD:R_0805_HandSoldering" V 12045 6025 30  0001 C CNN
F 3 "" H 12115 6025 30  0000 C CNN
	1    12115 6025
	1    0    0    -1  
$EndComp
Wire Wire Line
	12115 5710 12115 5875
$Comp
L GND #PWR02
U 1 1 567ACF2E
P 12115 6255
F 0 "#PWR02" H 12115 6005 50  0001 C CNN
F 1 "GND" H 12115 6105 50  0000 C CNN
F 2 "" H 12115 6255 60  0000 C CNN
F 3 "" H 12115 6255 60  0000 C CNN
	1    12115 6255
	1    0    0    -1  
$EndComp
Wire Wire Line
	12115 6175 12115 6255
Wire Wire Line
	12060 5710 12875 5710
Connection ~ 12115 5710
$Comp
L R R33
U 1 1 567AE75D
P 10280 1965
F 0 "R33" V 10360 1965 50  0000 C CNN
F 1 "4K7" V 10280 1965 50  0000 C CNN
F 2 "Resistors_SMD:R_0805_HandSoldering" V 10210 1965 30  0001 C CNN
F 3 "" H 10280 1965 30  0000 C CNN
	1    10280 1965
	1    0    0    -1  
$EndComp
Text GLabel 9845 1250 2    47   Input ~ 0
LVP_EN
$Comp
L 74LVC1T45 U6
U 1 1 567AF469
P 9195 1620
F 0 "U6" H 9195 1845 60  0000 C CNB
F 1 "74LVC1T45" H 9195 1370 60  0000 C CNB
F 2 "TO_SOT_Packages_SMD:SOT-23-6" H 9195 1620 60  0001 C CNN
F 3 "" H 9195 1620 60  0000 C CNN
	1    9195 1620
	1    0    0    -1  
$EndComp
Wire Wire Line
	9645 1620 9765 1620
Wire Wire Line
	9765 1620 9765 1250
Wire Wire Line
	9765 1250 9845 1250
$Comp
L R R28
U 1 1 567AF85F
P 10025 1520
F 0 "R28" V 10105 1520 50  0000 C CNN
F 1 "100" V 10025 1520 50  0000 C CNN
F 2 "Resistors_SMD:R_0805_HandSoldering" V 9955 1520 30  0001 C CNN
F 3 "" H 10025 1520 30  0000 C CNN
	1    10025 1520
	0    -1   -1   0   
$EndComp
Wire Wire Line
	9645 1520 9875 1520
Text GLabel 10320 1520 2    47   Input ~ 0
VDD_TAR
Wire Wire Line
	10175 1520 10320 1520
$Comp
L ZENER D7
U 1 1 567B00FA
P 10060 1920
F 0 "D7" V 10195 1980 50  0000 C CNN
F 1 "5V" V 10295 1980 50  0000 C CNN
F 2 "Diodes_SMD:SOD-123" H 10060 1920 60  0001 C CNN
F 3 "" H 10060 1920 60  0000 C CNN
	1    10060 1920
	0    1    1    0   
$EndComp
Wire Wire Line
	9705 1785 9705 1520
Connection ~ 9705 1520
$Comp
L VR VR1
U 1 1 567B050E
P 10590 1720
F 0 "VR1" V 10460 1795 50  0000 C TNN
F 1 "50mA" V 10590 1720 50  0000 C CNN
F 2 "Resistors_SMD:R_1210_HandSoldering" H 10590 1720 60  0001 C CNN
F 3 "" H 10590 1720 60  0000 C CNN
F 4 "MICROSMD005F" V 10395 1510 60  0000 C CNN "Part"
	1    10590 1720
	0    -1   -1   0   
$EndComp
$Comp
L C C23
U 1 1 567B01C5
P 9705 1935
F 0 "C23" H 9730 2035 50  0000 L CNN
F 1 "100n" H 9730 1835 50  0000 L CNN
F 2 "Capacitors_SMD:C_0805_HandSoldering" H 9743 1785 30  0001 C CNN
F 3 "" H 9705 1935 60  0000 C CNN
	1    9705 1935
	1    0    0    -1  
$EndComp
Wire Wire Line
	9645 1720 10340 1720
Connection ~ 10060 1720
Wire Wire Line
	10280 1815 10280 1720
Connection ~ 10280 1720
$Comp
L GND #PWR03
U 1 1 567B1DB9
P 10280 2270
F 0 "#PWR03" H 10280 2020 50  0001 C CNN
F 1 "GND" H 10280 2120 50  0000 C CNN
F 2 "" H 10280 2270 60  0000 C CNN
F 3 "" H 10280 2270 60  0000 C CNN
	1    10280 2270
	1    0    0    -1  
$EndComp
Wire Wire Line
	10280 2115 10280 2270
Wire Wire Line
	10060 2120 10060 2215
Wire Wire Line
	10060 2215 10280 2215
Connection ~ 10280 2215
$Comp
L GND #PWR04
U 1 1 567B1EC4
P 9705 2275
F 0 "#PWR04" H 9705 2025 50  0001 C CNN
F 1 "GND" H 9705 2125 50  0000 C CNN
F 2 "" H 9705 2275 60  0000 C CNN
F 3 "" H 9705 2275 60  0000 C CNN
	1    9705 2275
	1    0    0    -1  
$EndComp
Wire Wire Line
	9705 2085 9705 2275
Text GLabel 10925 1720 2    47   Input ~ 0
ICSP_LVP
Wire Wire Line
	10840 1720 10925 1720
$Comp
L GND #PWR05
U 1 1 567B260A
P 8500 1815
F 0 "#PWR05" H 8500 1565 50  0001 C CNN
F 1 "GND" H 8500 1665 50  0000 C CNN
F 2 "" H 8500 1815 60  0000 C CNN
F 3 "" H 8500 1815 60  0000 C CNN
	1    8500 1815
	1    0    0    -1  
$EndComp
$Comp
L C C20
U 1 1 567B265A
P 8635 2070
F 0 "C20" H 8660 2170 50  0000 L CNN
F 1 "100n" H 8660 1970 50  0000 L CNN
F 2 "Capacitors_SMD:C_0805_HandSoldering" H 8673 1920 30  0001 C CNN
F 3 "" H 8635 2070 60  0000 C CNN
	1    8635 2070
	1    0    0    -1  
$EndComp
$Comp
L GND #PWR06
U 1 1 567B2758
P 8635 2300
F 0 "#PWR06" H 8635 2050 50  0001 C CNN
F 1 "GND" H 8635 2150 50  0000 C CNN
F 2 "" H 8635 2300 60  0000 C CNN
F 3 "" H 8635 2300 60  0000 C CNN
	1    8635 2300
	1    0    0    -1  
$EndComp
$Comp
L +3.3V #PWR07
U 1 1 567B2795
P 8530 1520
F 0 "#PWR07" H 8530 1370 50  0001 C CNN
F 1 "+3.3V" H 8530 1660 50  0000 C CNN
F 2 "" H 8530 1520 60  0000 C CNN
F 3 "" H 8530 1520 60  0000 C CNN
	1    8530 1520
	1    0    0    -1  
$EndComp
Wire Wire Line
	8745 1520 8530 1520
Wire Wire Line
	8635 1920 8635 1520
Connection ~ 8635 1520
Wire Wire Line
	8745 1620 8500 1620
Wire Wire Line
	8500 1620 8500 1815
$Comp
L R R20
U 1 1 567B2E63
P 8275 1720
F 0 "R20" V 8355 1720 50  0000 C CNN
F 1 "330" V 8275 1720 50  0000 C CNN
F 2 "Resistors_SMD:R_0805_HandSoldering" V 8205 1720 30  0001 C CNN
F 3 "" H 8275 1720 30  0000 C CNN
	1    8275 1720
	0    -1   -1   0   
$EndComp
Wire Wire Line
	8745 1720 8425 1720
Wire Wire Line
	8635 2220 8635 2300
Text GLabel 8060 1720 0    47   Input ~ 0
LVP
Wire Wire Line
	8060 1720 8125 1720
$Comp
L R R35
U 1 1 567B503E
P 10290 3320
F 0 "R35" V 10370 3320 50  0000 C CNN
F 1 "4K7" V 10290 3320 50  0000 C CNN
F 2 "Resistors_SMD:R_0805_HandSoldering" V 10220 3320 30  0001 C CNN
F 3 "" H 10290 3320 30  0000 C CNN
	1    10290 3320
	1    0    0    -1  
$EndComp
Text GLabel 9855 2605 2    47   Input ~ 0
CLK_EN
$Comp
L 74LVC1T45 U8
U 1 1 567B5045
P 9205 2975
F 0 "U8" H 9205 3200 60  0000 C CNB
F 1 "74LVC1T45" H 9205 2725 60  0000 C CNB
F 2 "TO_SOT_Packages_SMD:SOT-23-6" H 9205 2975 60  0001 C CNN
F 3 "" H 9205 2975 60  0000 C CNN
	1    9205 2975
	1    0    0    -1  
$EndComp
Wire Wire Line
	9655 2975 9775 2975
Wire Wire Line
	9775 2975 9775 2605
Wire Wire Line
	9775 2605 9855 2605
$Comp
L R R30
U 1 1 567B504E
P 10035 2875
F 0 "R30" V 10115 2875 50  0000 C CNN
F 1 "100" V 10035 2875 50  0000 C CNN
F 2 "Resistors_SMD:R_0805_HandSoldering" V 9965 2875 30  0001 C CNN
F 3 "" H 10035 2875 30  0000 C CNN
	1    10035 2875
	0    -1   -1   0   
$EndComp
Wire Wire Line
	9655 2875 9885 2875
Text GLabel 10330 2875 2    47   Input ~ 0
VDD_TAR
Wire Wire Line
	10185 2875 10330 2875
$Comp
L ZENER D9
U 1 1 567B5057
P 10070 3275
F 0 "D9" V 10200 3325 50  0000 C CNN
F 1 "5V" V 10300 3325 50  0000 C CNN
F 2 "Diodes_SMD:SOD-123" H 10070 3275 60  0001 C CNN
F 3 "" H 10070 3275 60  0000 C CNN
	1    10070 3275
	0    1    1    0   
$EndComp
Wire Wire Line
	9715 3140 9715 2875
Connection ~ 9715 2875
$Comp
L VR VR3
U 1 1 567B505F
P 10600 3075
F 0 "VR3" V 10470 3165 50  0000 C TNN
F 1 "50mA" V 10600 3075 50  0000 C CNN
F 2 "Resistors_SMD:R_1210_HandSoldering" H 10600 3075 60  0001 C CNN
F 3 "" H 10600 3075 60  0000 C CNN
F 4 "MICROSMD005F" V 10415 2885 60  0000 C CNN "Part"
	1    10600 3075
	0    -1   -1   0   
$EndComp
$Comp
L C C25
U 1 1 567B5065
P 9715 3290
F 0 "C25" H 9740 3390 50  0000 L CNN
F 1 "100n" H 9740 3190 50  0000 L CNN
F 2 "Capacitors_SMD:C_0805_HandSoldering" H 9753 3140 30  0001 C CNN
F 3 "" H 9715 3290 60  0000 C CNN
	1    9715 3290
	1    0    0    -1  
$EndComp
Wire Wire Line
	9655 3075 10350 3075
Connection ~ 10070 3075
Wire Wire Line
	10290 3170 10290 3075
Connection ~ 10290 3075
$Comp
L GND #PWR08
U 1 1 567B506F
P 10290 3625
F 0 "#PWR08" H 10290 3375 50  0001 C CNN
F 1 "GND" H 10290 3475 50  0000 C CNN
F 2 "" H 10290 3625 60  0000 C CNN
F 3 "" H 10290 3625 60  0000 C CNN
	1    10290 3625
	1    0    0    -1  
$EndComp
Wire Wire Line
	10290 3470 10290 3625
Wire Wire Line
	10070 3475 10070 3570
Wire Wire Line
	10070 3570 10290 3570
Connection ~ 10290 3570
$Comp
L GND #PWR09
U 1 1 567B5079
P 9715 3630
F 0 "#PWR09" H 9715 3380 50  0001 C CNN
F 1 "GND" H 9715 3480 50  0000 C CNN
F 2 "" H 9715 3630 60  0000 C CNN
F 3 "" H 9715 3630 60  0000 C CNN
	1    9715 3630
	1    0    0    -1  
$EndComp
Wire Wire Line
	9715 3440 9715 3630
Text GLabel 10935 3075 2    47   Input ~ 0
ICSP_CLK
Wire Wire Line
	10850 3075 10935 3075
$Comp
L GND #PWR010
U 1 1 567B5082
P 8510 3170
F 0 "#PWR010" H 8510 2920 50  0001 C CNN
F 1 "GND" H 8510 3020 50  0000 C CNN
F 2 "" H 8510 3170 60  0000 C CNN
F 3 "" H 8510 3170 60  0000 C CNN
	1    8510 3170
	1    0    0    -1  
$EndComp
$Comp
L C C22
U 1 1 567B5088
P 8645 3425
F 0 "C22" H 8670 3525 50  0000 L CNN
F 1 "100n" H 8670 3325 50  0000 L CNN
F 2 "Capacitors_SMD:C_0805_HandSoldering" H 8683 3275 30  0001 C CNN
F 3 "" H 8645 3425 60  0000 C CNN
	1    8645 3425
	1    0    0    -1  
$EndComp
$Comp
L GND #PWR011
U 1 1 567B508E
P 8645 3655
F 0 "#PWR011" H 8645 3405 50  0001 C CNN
F 1 "GND" H 8645 3505 50  0000 C CNN
F 2 "" H 8645 3655 60  0000 C CNN
F 3 "" H 8645 3655 60  0000 C CNN
	1    8645 3655
	1    0    0    -1  
$EndComp
$Comp
L +3.3V #PWR012
U 1 1 567B5094
P 8540 2875
F 0 "#PWR012" H 8540 2725 50  0001 C CNN
F 1 "+3.3V" H 8540 3015 50  0000 C CNN
F 2 "" H 8540 2875 60  0000 C CNN
F 3 "" H 8540 2875 60  0000 C CNN
	1    8540 2875
	1    0    0    -1  
$EndComp
Wire Wire Line
	8755 2875 8540 2875
Wire Wire Line
	8645 3275 8645 2875
Connection ~ 8645 2875
Wire Wire Line
	8755 2975 8510 2975
Wire Wire Line
	8510 2975 8510 3170
$Comp
L R R21
U 1 1 567B509F
P 8285 3075
F 0 "R21" V 8365 3075 50  0000 C CNN
F 1 "330" V 8285 3075 50  0000 C CNN
F 2 "Resistors_SMD:R_0805_HandSoldering" V 8215 3075 30  0001 C CNN
F 3 "" H 8285 3075 30  0000 C CNN
	1    8285 3075
	0    -1   -1   0   
$EndComp
Wire Wire Line
	8755 3075 8435 3075
Wire Wire Line
	8645 3575 8645 3655
Text GLabel 8070 3075 0    47   Input ~ 0
SCK
Wire Wire Line
	8070 3075 8135 3075
$Comp
L R R34
U 1 1 567B6AED
P 10285 4600
F 0 "R34" V 10365 4600 50  0000 C CNN
F 1 "4K7" V 10285 4600 50  0000 C CNN
F 2 "Resistors_SMD:R_0805_HandSoldering" V 10215 4600 30  0001 C CNN
F 3 "" H 10285 4600 30  0000 C CNN
	1    10285 4600
	1    0    0    -1  
$EndComp
Text GLabel 9850 3885 2    47   Input ~ 0
DATA_EN
$Comp
L 74LVC1T45 U7
U 1 1 567B6AF4
P 9200 4255
F 0 "U7" H 9200 4480 60  0000 C CNB
F 1 "74LVC1T45" H 9200 4005 60  0000 C CNB
F 2 "TO_SOT_Packages_SMD:SOT-23-6" H 9200 4255 60  0001 C CNN
F 3 "" H 9200 4255 60  0000 C CNN
	1    9200 4255
	1    0    0    -1  
$EndComp
Wire Wire Line
	9650 4255 9770 4255
Wire Wire Line
	9770 4255 9770 3885
Wire Wire Line
	9770 3885 9850 3885
$Comp
L R R29
U 1 1 567B6AFD
P 10030 4155
F 0 "R29" V 10110 4155 50  0000 C CNN
F 1 "100" V 10030 4155 50  0000 C CNN
F 2 "Resistors_SMD:R_0805_HandSoldering" V 9960 4155 30  0001 C CNN
F 3 "" H 10030 4155 30  0000 C CNN
	1    10030 4155
	0    -1   -1   0   
$EndComp
Wire Wire Line
	9650 4155 9880 4155
Text GLabel 10325 4155 2    47   Input ~ 0
VDD_TAR
Wire Wire Line
	10180 4155 10325 4155
$Comp
L ZENER D8
U 1 1 567B6B06
P 10065 4555
F 0 "D8" V 10200 4610 50  0000 C CNN
F 1 "5V" V 10295 4615 50  0000 C CNN
F 2 "Diodes_SMD:SOD-123" H 10065 4555 60  0001 C CNN
F 3 "" H 10065 4555 60  0000 C CNN
	1    10065 4555
	0    1    1    0   
$EndComp
Wire Wire Line
	9710 4420 9710 4155
Connection ~ 9710 4155
$Comp
L VR VR2
U 1 1 567B6B0E
P 10595 4355
F 0 "VR2" V 10475 4455 50  0000 C TNN
F 1 "50mA" V 10595 4355 50  0000 C CNN
F 2 "Resistors_SMD:R_1210_HandSoldering" H 10595 4355 60  0001 C CNN
F 3 "" H 10595 4355 60  0000 C CNN
F 4 "MICROSMD005F" V 10420 4175 60  0000 C CNN "Part"
	1    10595 4355
	0    -1   -1   0   
$EndComp
$Comp
L C C24
U 1 1 567B6B14
P 9710 4570
F 0 "C24" H 9735 4670 50  0000 L CNN
F 1 "100n" H 9735 4470 50  0000 L CNN
F 2 "Capacitors_SMD:C_0805_HandSoldering" H 9748 4420 30  0001 C CNN
F 3 "" H 9710 4570 60  0000 C CNN
	1    9710 4570
	1    0    0    -1  
$EndComp
Wire Wire Line
	9650 4355 10345 4355
Connection ~ 10065 4355
Wire Wire Line
	10285 4450 10285 4355
Connection ~ 10285 4355
$Comp
L GND #PWR013
U 1 1 567B6B1E
P 10285 4905
F 0 "#PWR013" H 10285 4655 50  0001 C CNN
F 1 "GND" H 10285 4755 50  0000 C CNN
F 2 "" H 10285 4905 60  0000 C CNN
F 3 "" H 10285 4905 60  0000 C CNN
	1    10285 4905
	1    0    0    -1  
$EndComp
Wire Wire Line
	10285 4750 10285 4905
Wire Wire Line
	10065 4755 10065 4850
Wire Wire Line
	10065 4850 10285 4850
Connection ~ 10285 4850
$Comp
L GND #PWR014
U 1 1 567B6B28
P 9710 4910
F 0 "#PWR014" H 9710 4660 50  0001 C CNN
F 1 "GND" H 9710 4760 50  0000 C CNN
F 2 "" H 9710 4910 60  0000 C CNN
F 3 "" H 9710 4910 60  0000 C CNN
	1    9710 4910
	1    0    0    -1  
$EndComp
Wire Wire Line
	9710 4720 9710 4910
Text GLabel 10930 4355 2    47   Input ~ 0
ICSP_DAT
Wire Wire Line
	10845 4355 10930 4355
$Comp
L GND #PWR015
U 1 1 567B6B31
P 8505 4450
F 0 "#PWR015" H 8505 4200 50  0001 C CNN
F 1 "GND" H 8505 4300 50  0000 C CNN
F 2 "" H 8505 4450 60  0000 C CNN
F 3 "" H 8505 4450 60  0000 C CNN
	1    8505 4450
	1    0    0    -1  
$EndComp
$Comp
L C C21
U 1 1 567B6B37
P 8640 4705
F 0 "C21" H 8665 4805 50  0000 L CNN
F 1 "100n" H 8665 4605 50  0000 L CNN
F 2 "Capacitors_SMD:C_0805_HandSoldering" H 8678 4555 30  0001 C CNN
F 3 "" H 8640 4705 60  0000 C CNN
	1    8640 4705
	1    0    0    -1  
$EndComp
$Comp
L GND #PWR016
U 1 1 567B6B3D
P 8640 4935
F 0 "#PWR016" H 8640 4685 50  0001 C CNN
F 1 "GND" H 8640 4785 50  0000 C CNN
F 2 "" H 8640 4935 60  0000 C CNN
F 3 "" H 8640 4935 60  0000 C CNN
	1    8640 4935
	1    0    0    -1  
$EndComp
$Comp
L +3.3V #PWR017
U 1 1 567B6B43
P 8535 4155
F 0 "#PWR017" H 8535 4005 50  0001 C CNN
F 1 "+3.3V" H 8535 4295 50  0000 C CNN
F 2 "" H 8535 4155 60  0000 C CNN
F 3 "" H 8535 4155 60  0000 C CNN
	1    8535 4155
	1    0    0    -1  
$EndComp
Wire Wire Line
	8750 4155 8535 4155
Wire Wire Line
	8640 4555 8640 4155
Connection ~ 8640 4155
Wire Wire Line
	8750 4255 8505 4255
Wire Wire Line
	8505 4255 8505 4450
$Comp
L R R18
U 1 1 567B6B4E
P 8205 4355
F 0 "R18" V 8285 4355 50  0000 C CNN
F 1 "330" V 8205 4355 50  0000 C CNN
F 2 "Resistors_SMD:R_0805_HandSoldering" V 8135 4355 30  0001 C CNN
F 3 "" H 8205 4355 30  0000 C CNN
	1    8205 4355
	0    -1   -1   0   
$EndComp
Wire Wire Line
	8640 4855 8640 4935
Text GLabel 8000 4355 0    47   Input ~ 0
SDI
$Comp
L R R19
U 1 1 567B8D34
P 8210 4480
F 0 "R19" V 8120 4480 50  0000 C CNN
F 1 "330" V 8210 4480 50  0000 C CNN
F 2 "Resistors_SMD:R_0805_HandSoldering" V 8140 4480 30  0001 C CNN
F 3 "" H 8210 4480 30  0000 C CNN
	1    8210 4480
	0    -1   -1   0   
$EndComp
Text GLabel 8000 4480 0    47   Input ~ 0
SDO
Wire Wire Line
	8355 4355 8750 4355
Wire Wire Line
	8000 4355 8055 4355
Wire Wire Line
	8000 4480 8060 4480
Wire Wire Line
	8360 4480 8395 4480
Wire Wire Line
	8395 4480 8395 4355
Connection ~ 8395 4355
$Comp
L C C32
U 1 1 567BC08C
P 14620 2380
F 0 "C32" H 14645 2480 50  0000 L CNN
F 1 "100n" H 14645 2280 50  0000 L CNN
F 2 "Capacitors_SMD:C_0805_HandSoldering" H 14658 2230 30  0001 C CNN
F 3 "" H 14620 2380 60  0000 C CNN
	1    14620 2380
	1    0    0    -1  
$EndComp
$Comp
L R R43
U 1 1 567BC23E
P 13335 1510
F 0 "R43" V 13415 1510 50  0000 C CNN
F 1 "10K" V 13335 1510 50  0000 C CNN
F 2 "Resistors_SMD:R_0805_HandSoldering" V 13265 1510 30  0001 C CNN
F 3 "" H 13335 1510 30  0000 C CNN
	1    13335 1510
	0    -1   -1   0   
$EndComp
$Comp
L R R42
U 1 1 567BC421
P 12970 2180
F 0 "R42" V 12875 2165 50  0000 C CNN
F 1 "1K" V 12970 2180 50  0000 C CNN
F 2 "Resistors_SMD:R_0805_HandSoldering" V 12900 2180 30  0001 C CNN
F 3 "" H 12970 2180 30  0000 C CNN
	1    12970 2180
	1    0    0    -1  
$EndComp
$Comp
L +3.3V #PWR018
U 1 1 567BC4EB
P 14815 1665
F 0 "#PWR018" H 14815 1515 50  0001 C CNN
F 1 "+3.3V" H 14815 1805 50  0000 C CNN
F 2 "" H 14815 1665 60  0000 C CNN
F 3 "" H 14815 1665 60  0000 C CNN
	1    14815 1665
	1    0    0    -1  
$EndComp
Wire Wire Line
	14160 1700 14815 1700
Wire Wire Line
	14815 1700 14815 1665
Text GLabel 14790 1950 2    47   Input ~ 0
UTIL_SCK
Text GLabel 14790 2075 2    47   Input ~ 0
UTIL_SDO
Wire Wire Line
	14160 1950 14790 1950
Wire Wire Line
	14790 2075 14160 2075
Wire Wire Line
	14620 2230 14620 1700
Connection ~ 14620 1700
Wire Wire Line
	13185 1700 13185 1510
Wire Wire Line
	13485 1510 14280 1510
Wire Wire Line
	14280 1510 14280 1825
Connection ~ 14280 1700
Text GLabel 13090 1700 0    47   Input ~ 0
UTIL_CS1
Wire Wire Line
	13090 1700 13185 1700
Text GLabel 13090 1825 0    47   Input ~ 0
UTIL_SDI
Wire Wire Line
	13185 1825 13090 1825
$Comp
L GND #PWR019
U 1 1 567C13FE
P 14620 2600
F 0 "#PWR019" H 14620 2350 50  0001 C CNN
F 1 "GND" H 14620 2450 50  0000 C CNN
F 2 "" H 14620 2600 60  0000 C CNN
F 3 "" H 14620 2600 60  0000 C CNN
	1    14620 2600
	1    0    0    -1  
$EndComp
$Comp
L GND #PWR020
U 1 1 567C1487
P 12970 2440
F 0 "#PWR020" H 12970 2190 50  0001 C CNN
F 1 "GND" H 12970 2290 50  0000 C CNN
F 2 "" H 12970 2440 60  0000 C CNN
F 3 "" H 12970 2440 60  0000 C CNN
	1    12970 2440
	1    0    0    -1  
$EndComp
Text GLabel 12825 1950 0    47   Input ~ 0
UTIL_WP1
Wire Wire Line
	14620 2530 14620 2600
Wire Wire Line
	14280 1825 14160 1825
$Comp
L +5V #PWR021
U 1 1 567C56F0
P 6675 5725
F 0 "#PWR021" H 6675 5575 50  0001 C CNN
F 1 "+5V" H 6675 5865 50  0000 C CNN
F 2 "" H 6675 5725 60  0000 C CNN
F 3 "" H 6675 5725 60  0000 C CNN
	1    6675 5725
	1    0    0    -1  
$EndComp
$Comp
L C C15
U 1 1 567C5758
P 6675 6095
F 0 "C15" H 6700 6195 50  0000 L CNN
F 1 "100n" H 6680 5995 50  0000 L CNN
F 2 "Capacitors_SMD:C_0805_HandSoldering" H 6713 5945 30  0001 C CNN
F 3 "" H 6675 6095 60  0000 C CNN
	1    6675 6095
	1    0    0    -1  
$EndComp
$Comp
L GND #PWR022
U 1 1 567C5CE1
P 6675 6335
F 0 "#PWR022" H 6675 6085 50  0001 C CNN
F 1 "GND" H 6675 6185 50  0000 C CNN
F 2 "" H 6675 6335 60  0000 C CNN
F 3 "" H 6675 6335 60  0000 C CNN
	1    6675 6335
	1    0    0    -1  
$EndComp
$Comp
L GND #PWR023
U 1 1 567C5D77
P 7945 6330
F 0 "#PWR023" H 7945 6080 50  0001 C CNN
F 1 "GND" H 7945 6180 50  0000 C CNN
F 2 "" H 7945 6330 60  0000 C CNN
F 3 "" H 7945 6330 60  0000 C CNN
	1    7945 6330
	1    0    0    -1  
$EndComp
Wire Wire Line
	6675 5945 6675 5725
Wire Wire Line
	6880 5775 6675 5775
Connection ~ 6675 5775
Wire Wire Line
	6675 6335 6675 6245
Wire Wire Line
	6880 5975 6880 6285
Wire Wire Line
	6880 6285 6675 6285
Connection ~ 6675 6285
Text GLabel 8055 5875 2    47   Input ~ 0
VREF_2V5
Wire Wire Line
	7830 5875 8055 5875
$Comp
L CP1 C17
U 1 1 567C78E9
P 7945 6110
F 0 "C17" H 7970 6210 50  0000 L CNN
F 1 "2u2" H 7970 6010 50  0000 L CNN
F 2 "Capacitors_Tantalum_SMD:TantalC_SizeC_EIA-6032_HandSoldering" H 7945 6110 60  0001 C CNN
F 3 "" H 7945 6110 60  0000 C CNN
	1    7945 6110
	1    0    0    -1  
$EndComp
Wire Wire Line
	7945 5960 7945 5875
Connection ~ 7945 5875
Wire Wire Line
	7945 6330 7945 6260
Text GLabel 2260 9465 0    47   Input ~ 0
VBUS
Wire Wire Line
	2260 9465 2785 9465
$Comp
L R R3
U 1 1 567C8D98
P 2445 9665
F 0 "R3" V 2540 9665 50  0000 C CNN
F 1 "10k" V 2445 9665 50  0000 C CNN
F 2 "Resistors_SMD:R_0805_HandSoldering" V 2375 9665 30  0001 C CNN
F 3 "" H 2445 9665 30  0000 C CNN
	1    2445 9665
	0    1    1    0   
$EndComp
Wire Wire Line
	2295 9665 2295 9465
Connection ~ 2295 9465
Wire Wire Line
	2595 9665 2785 9665
Wire Wire Line
	2630 9665 2630 9800
Connection ~ 2630 9665
$Comp
L R R7
U 1 1 567C9B8A
P 4275 9740
F 0 "R7" V 4370 9735 50  0000 C CNN
F 1 "2k 1%" V 4275 9740 39  0000 C CNN
F 2 "Resistors_SMD:R_0805_HandSoldering" V 4205 9740 30  0001 C CNN
F 3 "" H 4275 9740 30  0000 C CNN
	1    4275 9740
	1    0    0    -1  
$EndComp
$Comp
L R R8
U 1 1 567C9D0F
P 4275 10160
F 0 "R8" V 4370 10150 50  0000 C CNN
F 1 "2k 1%" V 4275 10160 39  0000 C CNN
F 2 "Resistors_SMD:R_0805_HandSoldering" V 4205 10160 30  0001 C CNN
F 3 "" H 4275 10160 30  0000 C CNN
	1    4275 10160
	1    0    0    -1  
$EndComp
$Comp
L C C6
U 1 1 567C9E29
P 3870 9930
F 0 "C6" H 3895 10030 50  0000 L CNN
F 1 "4u7" H 3895 9830 50  0000 L CNN
F 2 "Capacitors_SMD:C_0805_HandSoldering" H 3908 9780 30  0001 C CNN
F 3 "" H 3870 9930 60  0000 C CNN
	1    3870 9930
	1    0    0    -1  
$EndComp
NoConn ~ 3635 9665
Wire Wire Line
	4275 9565 4275 9590
Wire Wire Line
	4275 9890 4275 10010
Wire Wire Line
	3870 9565 3870 9780
Wire Wire Line
	2630 10200 3870 10200
Wire Wire Line
	3870 10200 3870 10080
Wire Wire Line
	2785 9565 2765 9565
Wire Wire Line
	2765 9565 2765 10285
Connection ~ 2765 10200
$Comp
L GND #PWR024
U 1 1 567CC63A
P 2765 10285
F 0 "#PWR024" H 2765 10035 50  0001 C CNN
F 1 "GND" H 2765 10135 50  0000 C CNN
F 2 "" H 2765 10285 60  0000 C CNN
F 3 "" H 2765 10285 60  0000 C CNN
	1    2765 10285
	1    0    0    -1  
$EndComp
$Comp
L R R1
U 1 1 567CCCF4
P 2070 10000
F 0 "R1" V 2170 10015 50  0000 C CNN
F 1 "1k" V 2070 10000 50  0000 C CNN
F 2 "Resistors_SMD:R_0805_HandSoldering" V 2000 10000 30  0001 C CNN
F 3 "" H 2070 10000 30  0000 C CNN
	1    2070 10000
	0    1    1    0   
$EndComp
Wire Wire Line
	2220 10000 2330 10000
Text GLabel 1825 10000 0    47   Input ~ 0
5V_USB_ON
Wire Wire Line
	1825 10000 1920 10000
$Comp
L GND #PWR025
U 1 1 567CDF32
P 4275 10365
F 0 "#PWR025" H 4275 10115 50  0001 C CNN
F 1 "GND" H 4275 10215 50  0000 C CNN
F 2 "" H 4275 10365 60  0000 C CNN
F 3 "" H 4275 10365 60  0000 C CNN
	1    4275 10365
	1    0    0    -1  
$EndComp
Wire Wire Line
	4275 10310 4275 10365
Text GLabel 4405 9950 2    47   Input ~ 0
5V_USB_GOOD
Wire Wire Line
	4405 9950 4275 9950
Connection ~ 4275 9950
$Comp
L +5V #PWR026
U 1 1 567CF3E0
P 4075 9475
F 0 "#PWR026" H 4075 9325 50  0001 C CNN
F 1 "+5V" H 4075 9615 50  0000 C CNN
F 2 "" H 4075 9475 60  0000 C CNN
F 3 "" H 4075 9475 60  0000 C CNN
	1    4075 9475
	1    0    0    -1  
$EndComp
Wire Wire Line
	3635 9565 4275 9565
Connection ~ 3870 9565
Wire Wire Line
	4075 9475 4075 9565
Connection ~ 4075 9565
$Comp
L D_Schottky D1
U 1 1 567D7D25
P 2340 6920
F 0 "D1" H 2340 7020 50  0000 C CNN
F 1 "MBR0520L" H 2340 6820 50  0000 C CNN
F 2 "Diodes_SMD:SOD-123" H 2340 6920 60  0001 C CNN
F 3 "" H 2340 6920 60  0000 C CNN
	1    2340 6920
	-1   0    0    1   
$EndComp
$Comp
L CP1 C1
U 1 1 567D7E02
P 1550 7845
F 0 "C1" H 1575 7945 50  0000 L CNN
F 1 "2u2" H 1575 7745 50  0000 L CNN
F 2 "Capacitors_Tantalum_SMD:TantalC_SizeC_EIA-6032_HandSoldering" H 1550 7845 60  0001 C CNN
F 3 "" H 1550 7845 60  0000 C CNN
	1    1550 7845
	1    0    0    -1  
$EndComp
$Comp
L CP1 C9
U 1 1 567D7F73
P 4430 7830
F 0 "C9" H 4455 7930 50  0000 L CNN
F 1 "2u2" H 4455 7730 50  0000 L CNN
F 2 "Capacitors_Tantalum_SMD:TantalC_SizeB_EIA-3528_HandSoldering" H 4430 7830 60  0001 C CNN
F 3 "" H 4430 7830 60  0000 C CNN
	1    4430 7830
	1    0    0    -1  
$EndComp
$Comp
L C C7
U 1 1 567D804B
P 4130 7830
F 0 "C7" H 4155 7930 50  0000 L CNN
F 1 "10n" H 4155 7730 50  0000 L CNN
F 2 "Capacitors_SMD:C_0805_HandSoldering" H 4168 7680 30  0001 C CNN
F 3 "" H 4130 7830 60  0000 C CNN
	1    4130 7830
	1    0    0    -1  
$EndComp
$Comp
L C C5
U 1 1 567D8182
P 3800 7830
F 0 "C5" H 3825 7930 50  0000 L CNN
F 1 "100n" H 3825 7730 50  0000 L CNN
F 2 "Capacitors_SMD:C_0805_HandSoldering" H 3838 7680 30  0001 C CNN
F 3 "" H 3800 7830 60  0000 C CNN
	1    3800 7830
	1    0    0    -1  
$EndComp
$Comp
L R R5
U 1 1 567D824E
P 3455 8085
F 0 "R5" V 3545 8085 50  0000 C CNN
F 1 "200K" V 3455 8085 50  0000 C CNN
F 2 "Resistors_SMD:R_0805_HandSoldering" V 3385 8085 30  0001 C CNN
F 3 "" H 3455 8085 30  0000 C CNN
	1    3455 8085
	1    0    0    -1  
$EndComp
$Comp
L R R10
U 1 1 567D83AB
P 4720 7830
F 0 "R10" V 4810 7830 50  0000 C CNN
F 1 "2k2" V 4720 7830 50  0000 C CNN
F 2 "Resistors_SMD:R_0805_HandSoldering" V 4650 7830 30  0001 C CNN
F 3 "" H 4720 7830 30  0000 C CNN
	1    4720 7830
	1    0    0    -1  
$EndComp
$Comp
L R R11
U 1 1 567D8530
P 4930 7830
F 0 "R11" V 5020 7830 50  0000 C CNN
F 1 "330" V 4930 7830 50  0000 C CNN
F 2 "Resistors_SMD:R_0805_HandSoldering" V 4860 7830 30  0001 C CNN
F 3 "" H 4930 7830 30  0000 C CNN
	1    4930 7830
	1    0    0    -1  
$EndComp
$Comp
L LED D5
U 1 1 567D85F8
P 4930 8270
F 0 "D5" H 4930 8370 50  0000 C CNN
F 1 "GREEN" H 4915 8445 50  0000 C CNN
F 2 "LEDs:LED-0805" H 4930 8270 60  0001 C CNN
F 3 "" H 4930 8270 60  0000 C CNN
	1    4930 8270
	0    1    -1   0   
$EndComp
Text GLabel 2725 6920 2    47   Input ~ 0
VBUS_DEVICE
Text GLabel 1340 7415 0    47   Input ~ 0
VBUS
Wire Wire Line
	1340 7415 1935 7415
Wire Wire Line
	1825 6920 2190 6920
$Comp
L GND #PWR027
U 1 1 567DACFB
P 1550 8075
F 0 "#PWR027" H 1550 7825 50  0001 C CNN
F 1 "GND" H 1550 7925 50  0000 C CNN
F 2 "" H 1550 8075 60  0000 C CNN
F 3 "" H 1550 8075 60  0000 C CNN
	1    1550 8075
	1    0    0    -1  
$EndComp
Wire Wire Line
	1550 8075 1550 7995
Wire Wire Line
	1935 7715 1805 7715
Wire Wire Line
	1805 7715 1805 8045
Wire Wire Line
	1805 8045 1550 8045
Connection ~ 1550 8045
Wire Wire Line
	1550 7695 1550 7415
Connection ~ 1550 7415
Wire Wire Line
	2490 6920 2725 6920
Text GLabel 3620 8300 2    47   Input ~ 0
POWER_GOOD
Wire Wire Line
	3455 8235 3455 8300
Wire Wire Line
	3120 8300 3620 8300
Wire Wire Line
	3060 7715 3120 7715
Wire Wire Line
	3120 7715 3120 8300
Connection ~ 3455 8300
$Comp
L GND #PWR028
U 1 1 567DFE03
P 4430 8100
F 0 "#PWR028" H 4430 7850 50  0001 C CNN
F 1 "GND" H 4430 7950 50  0000 C CNN
F 2 "" H 4430 8100 60  0000 C CNN
F 3 "" H 4430 8100 60  0000 C CNN
	1    4430 8100
	1    0    0    -1  
$EndComp
Wire Wire Line
	3800 7980 3800 8100
Wire Wire Line
	3800 8100 4720 8100
Wire Wire Line
	4130 7980 4130 8100
Connection ~ 4130 8100
Wire Wire Line
	4430 8100 4430 7980
Wire Wire Line
	4720 7980 4720 8520
Connection ~ 4430 8100
Wire Wire Line
	4930 7980 4930 8070
Wire Wire Line
	4720 8520 4930 8520
Wire Wire Line
	4930 8520 4930 8470
Connection ~ 4720 8100
Wire Wire Line
	3060 7415 4930 7415
Wire Wire Line
	4930 7415 4930 7680
Wire Wire Line
	4720 7680 4720 7415
Connection ~ 4720 7415
Wire Wire Line
	4430 7680 4430 7415
Connection ~ 4430 7415
Wire Wire Line
	4130 7680 4130 7415
Connection ~ 4130 7415
Wire Wire Line
	3060 7615 3800 7615
Wire Wire Line
	3800 7615 3800 7680
Wire Wire Line
	3060 7515 3205 7515
Wire Wire Line
	3205 7515 3205 7415
Connection ~ 3205 7415
Wire Wire Line
	3455 7935 3455 7415
Connection ~ 3455 7415
$Comp
L +3.3V #PWR029
U 1 1 567E331A
P 3790 7305
F 0 "#PWR029" H 3790 7155 50  0001 C CNN
F 1 "+3.3V" H 3790 7445 50  0000 C CNN
F 2 "" H 3790 7305 60  0000 C CNN
F 3 "" H 3790 7305 60  0000 C CNN
	1    3790 7305
	1    0    0    -1  
$EndComp
Wire Wire Line
	3790 7305 3790 7415
Connection ~ 3790 7415
NoConn ~ 7705 9745
$Comp
L R R15
U 1 1 567E7B7D
P 6245 9745
F 0 "R15" V 6340 9745 50  0000 C CNN
F 1 "10k" V 6245 9745 50  0000 C CNN
F 2 "Resistors_SMD:R_0805_HandSoldering" V 6175 9745 30  0001 C CNN
F 3 "" H 6245 9745 30  0000 C CNN
	1    6245 9745
	1    0    0    -1  
$EndComp
$Comp
L R R16
U 1 1 567E7D18
P 7850 10230
F 0 "R16" V 7940 10230 50  0000 C CNN
F 1 "27K" V 7850 10230 50  0000 C CNN
F 2 "Resistors_SMD:R_0805_HandSoldering" V 7780 10230 30  0001 C CNN
F 3 "" H 7850 10230 30  0000 C CNN
	1    7850 10230
	1    0    0    -1  
$EndComp
$Comp
L R R22
U 1 1 567E7F40
P 8485 10265
F 0 "R22" V 8565 10210 50  0000 C CNN
F 1 "2K2" V 8485 10265 50  0000 C CNN
F 2 "Resistors_SMD:R_0805_HandSoldering" V 8415 10265 30  0001 C CNN
F 3 "" H 8485 10265 30  0000 C CNN
	1    8485 10265
	0    -1   -1   0   
$EndComp
$Comp
L R R25
U 1 1 567E8102
P 8740 10055
F 0 "R25" V 8835 10055 50  0000 C CNN
F 1 "3K9" V 8740 10055 50  0000 C CNN
F 2 "Resistors_SMD:R_0805_HandSoldering" V 8670 10055 30  0001 C CNN
F 3 "" H 8740 10055 30  0000 C CNN
	1    8740 10055
	1    0    0    -1  
$EndComp
$Comp
L R R26
U 1 1 567E8FC1
P 9030 9845
F 0 "R26" V 9130 9840 50  0000 C CNN
F 1 "1K" V 9030 9845 50  0000 C CNN
F 2 "Resistors_SMD:R_0805_HandSoldering" V 8960 9845 30  0001 C CNN
F 3 "" H 9030 9845 30  0000 C CNN
	1    9030 9845
	0    1    1    0   
$EndComp
$Comp
L R R31
U 1 1 567E94CF
P 10040 10095
F 0 "R31" V 10130 10095 50  0000 C CNN
F 1 "10K" V 10040 10095 50  0000 C CNN
F 2 "Resistors_SMD:R_0805_HandSoldering" V 9970 10095 30  0001 C CNN
F 3 "" H 10040 10095 30  0000 C CNN
	1    10040 10095
	0    1    1    0   
$EndComp
$Comp
L R R27
U 1 1 567E9670
P 9800 10310
F 0 "R27" V 9890 10310 50  0000 C CNN
F 1 "47K" V 9800 10310 50  0000 C CNN
F 2 "Resistors_SMD:R_0805_HandSoldering" V 9730 10310 30  0001 C CNN
F 3 "" H 9800 10310 30  0000 C CNN
	1    9800 10310
	1    0    0    -1  
$EndComp
$Comp
L R R37
U 1 1 567E97C2
P 10865 9895
F 0 "R37" V 10960 9890 50  0000 C CNN
F 1 "10K" V 10865 9895 50  0000 C CNN
F 2 "Resistors_SMD:R_0805_HandSoldering" V 10795 9895 30  0001 C CNN
F 3 "" H 10865 9895 30  0000 C CNN
	1    10865 9895
	0    1    1    0   
$EndComp
$Comp
L C C14
U 1 1 567E9CEB
P 6405 10190
F 0 "C14" H 6430 10290 50  0000 L CNN
F 1 "1u" H 6430 10090 50  0000 L CNN
F 2 "Capacitors_SMD:C_0805_HandSoldering" H 6443 10040 30  0001 C CNN
F 3 "" H 6405 10190 60  0000 C CNN
	1    6405 10190
	1    0    0    -1  
$EndComp
$Comp
L C C18
U 1 1 567E9FCA
P 8190 10040
F 0 "C18" H 8215 10140 50  0000 L CNN
F 1 "100n" H 8215 9940 50  0000 L CNN
F 2 "Capacitors_SMD:C_0805_HandSoldering" H 8228 9890 30  0001 C CNN
F 3 "" H 8190 10040 60  0000 C CNN
	1    8190 10040
	1    0    0    -1  
$EndComp
$Comp
L D_Schottky D6
U 1 1 567EA4E1
P 8510 9845
F 0 "D6" H 8510 9945 50  0000 C CNN
F 1 "PMEG3020" H 8510 9745 50  0000 C CNN
F 2 "Diodes_SMD:SOD-123" H 8510 9845 60  0001 C CNN
F 3 "" H 8510 9845 60  0000 C CNN
	1    8510 9845
	-1   0    0    1   
$EndComp
Text GLabel 6120 9945 0    47   Input ~ 0
SUPPLY_PWR
Wire Wire Line
	6680 9945 6120 9945
Text GLabel 6650 9450 2    47   Input ~ 0
VDD_INT
Wire Wire Line
	6650 9450 6245 9450
Wire Wire Line
	6245 9450 6245 9595
Wire Wire Line
	6245 9895 6245 9945
Connection ~ 6245 9945
Wire Wire Line
	6680 9745 6535 9745
Wire Wire Line
	6535 9450 6535 9845
Connection ~ 6535 9450
Wire Wire Line
	6405 9845 6680 9845
Connection ~ 6535 9745
Wire Wire Line
	6405 10040 6405 9845
Connection ~ 6535 9845
$Comp
L GND #PWR030
U 1 1 567EF9E6
P 6600 10420
F 0 "#PWR030" H 6600 10170 50  0001 C CNN
F 1 "GND" H 6600 10270 50  0000 C CNN
F 2 "" H 6600 10420 60  0000 C CNN
F 3 "" H 6600 10420 60  0000 C CNN
	1    6600 10420
	1    0    0    -1  
$EndComp
Wire Wire Line
	6680 10045 6600 10045
Wire Wire Line
	6600 10045 6600 10420
Wire Wire Line
	6405 10340 6405 10395
Wire Wire Line
	6405 10395 9410 10395
Connection ~ 6600 10395
Wire Wire Line
	7705 10045 7850 10045
Wire Wire Line
	7850 10045 7850 10080
Wire Wire Line
	7850 10395 7850 10380
Wire Wire Line
	7705 9845 8360 9845
Wire Wire Line
	8190 9845 8190 9890
Wire Wire Line
	7705 9945 7795 9945
Wire Wire Line
	7795 9945 7795 9845
Connection ~ 7795 9845
Connection ~ 8190 9845
Wire Wire Line
	8190 10395 8190 10190
Connection ~ 7850 10395
Wire Wire Line
	8335 10265 8190 10265
Wire Wire Line
	8190 10265 8190 10260
Connection ~ 8190 10260
Wire Wire Line
	9410 10295 9410 10480
Connection ~ 8190 10395
Wire Wire Line
	8635 10265 8795 10265
Wire Wire Line
	8740 10265 8740 10205
Wire Wire Line
	8660 9845 8880 9845
Wire Wire Line
	8740 9680 8740 9905
Connection ~ 8740 9845
Text GLabel 8795 10265 2    47   Input ~ 0
VDD_FBACK
Connection ~ 8740 10265
Text GLabel 8810 9680 2    47   Input ~ 0
VDD_TAR
Wire Wire Line
	8810 9680 8740 9680
Wire Wire Line
	9180 9845 9410 9845
Wire Wire Line
	9410 9845 9410 9895
Wire Wire Line
	9710 10095 9890 10095
Wire Wire Line
	9800 10160 9800 10095
Connection ~ 9800 10095
Wire Wire Line
	9800 10460 9800 10480
Wire Wire Line
	9800 10480 9410 10480
Connection ~ 9410 10395
Wire Wire Line
	10190 10095 10350 10095
Wire Wire Line
	10650 9895 10715 9895
Text GLabel 10425 9595 2    47   Input ~ 0
VDD_INT
Text GLabel 11130 9895 2    47   Input ~ 0
NVDD_GND
Wire Wire Line
	10350 9695 10350 9595
Wire Wire Line
	10350 9595 10425 9595
Wire Wire Line
	11015 9895 11130 9895
$Comp
L MCP601_8PIN U9
U 1 1 567FBBC1
P 9445 8040
F 0 "U9" H 9445 8440 60  0000 C CNB
F 1 "MCP601_8PIN" H 9445 7640 60  0000 C CNB
F 2 "Housings_SOIC:SOIC-8_3.9x4.9mm_Pitch1.27mm" H 9345 8690 60  0001 C CNN
F 3 "" H 9345 8690 60  0000 C CNN
	1    9445 8040
	1    0    0    -1  
$EndComp
$Comp
L R R23
U 1 1 567FBEE7
P 8625 7680
F 0 "R23" V 8720 7680 50  0000 C CNN
F 1 "10k" V 8625 7680 50  0000 C CNN
F 2 "Resistors_SMD:R_0805_HandSoldering" V 8555 7680 30  0001 C CNN
F 3 "" H 8625 7680 30  0000 C CNN
	1    8625 7680
	1    0    0    -1  
$EndComp
$Comp
L R R24
U 1 1 567FC68A
P 8625 8405
F 0 "R24" V 8720 8405 50  0000 C CNN
F 1 "10k" V 8625 8405 50  0000 C CNN
F 2 "Resistors_SMD:R_0805_HandSoldering" V 8555 8405 30  0001 C CNN
F 3 "" H 8625 8405 30  0000 C CNN
	1    8625 8405
	1    0    0    -1  
$EndComp
$Comp
L R R17
U 1 1 567FC7E0
P 8085 7965
F 0 "R17" V 8180 7965 50  0000 C CNN
F 1 "10k" V 8085 7965 50  0000 C CNN
F 2 "Resistors_SMD:R_0805_HandSoldering" V 8015 7965 30  0001 C CNN
F 3 "" H 8085 7965 30  0000 C CNN
	1    8085 7965
	0    -1   -1   0   
$EndComp
$Comp
L C C19
U 1 1 567FCBE1
P 8385 8400
F 0 "C19" H 8210 8520 50  0000 L CNN
F 1 "100n" H 8175 8305 50  0000 L CNN
F 2 "Capacitors_SMD:C_0805_HandSoldering" H 8423 8250 30  0001 C CNN
F 3 "" H 8385 8400 60  0000 C CNN
	1    8385 8400
	1    0    0    -1  
$EndComp
$Comp
L C C27
U 1 1 567FCE35
P 10350 7680
F 0 "C27" V 10205 7785 50  0000 L CNN
F 1 "100n" V 10300 7765 50  0000 L CNN
F 2 "Capacitors_SMD:C_0805_HandSoldering" H 10388 7530 30  0001 C CNN
F 3 "" H 10350 7680 60  0000 C CNN
	1    10350 7680
	0    1    1    0   
$EndComp
$Comp
L R R32
U 1 1 567FD0EA
P 10215 8115
F 0 "R32" V 10310 8115 50  0000 C CNN
F 1 "100" V 10215 8115 50  0000 C CNN
F 2 "Resistors_SMD:R_0805_HandSoldering" V 10145 8115 30  0001 C CNN
F 3 "" H 10215 8115 30  0000 C CNN
	1    10215 8115
	0    -1   -1   0   
$EndComp
$Comp
L C C28
U 1 1 567FE9E4
P 10455 8775
F 0 "C28" H 10480 8940 50  0000 L CNN
F 1 "100n" H 10470 8855 50  0000 L CNN
F 2 "Capacitors_SMD:C_0805_HandSoldering" H 10493 8625 30  0001 C CNN
F 3 "" H 10455 8775 60  0000 C CNN
	1    10455 8775
	1    0    0    -1  
$EndComp
$Comp
L R R36
U 1 1 567FEBBD
P 10750 8765
F 0 "R36" V 10845 8765 50  0000 C CNN
F 1 "2K7" V 10750 8765 50  0000 C CNN
F 2 "Resistors_SMD:R_0805_HandSoldering" V 10680 8765 30  0001 C CNN
F 3 "" H 10750 8765 30  0000 C CNN
	1    10750 8765
	1    0    0    -1  
$EndComp
$Comp
L R R38
U 1 1 567FEDBF
P 11260 7785
F 0 "R38" V 11355 7785 50  0000 C CNN
F 1 "10k" V 11260 7785 50  0000 C CNN
F 2 "Resistors_SMD:R_0805_HandSoldering" V 11190 7785 30  0001 C CNN
F 3 "" H 11260 7785 30  0000 C CNN
	1    11260 7785
	1    0    0    1   
$EndComp
$Comp
L Q_PMOS_GSD Q4
U 1 1 567FF612
P 10765 8115
F 0 "Q4" H 11075 8035 50  0000 R CNN
F 1 "PMV48XP" H 11240 7885 50  0000 R CNN
F 2 "TO_SOT_Packages_SMD:SOT-23_Handsoldering" H 10965 8215 29  0001 C CNN
F 3 "" H 10765 8115 60  0000 C CNN
	1    10765 8115
	1    0    0    -1  
$EndComp
Wire Wire Line
	8625 7830 8625 8255
Wire Wire Line
	8235 7965 8920 7965
Wire Wire Line
	8920 8115 8625 8115
Connection ~ 8625 8115
Wire Wire Line
	8385 8250 8385 7965
Connection ~ 8385 7965
$Comp
L GND #PWR031
U 1 1 56803B1E
P 8385 8645
F 0 "#PWR031" H 8385 8395 50  0001 C CNN
F 1 "GND" H 8385 8495 50  0000 C CNN
F 2 "" H 8385 8645 60  0000 C CNN
F 3 "" H 8385 8645 60  0000 C CNN
	1    8385 8645
	1    0    0    -1  
$EndComp
Wire Wire Line
	8385 8550 8385 8645
Wire Wire Line
	8625 8555 8625 8610
Wire Wire Line
	8625 8610 8385 8610
Connection ~ 8385 8610
$Comp
L GND #PWR032
U 1 1 56804FC4
P 8920 8400
F 0 "#PWR032" H 8920 8150 50  0001 C CNN
F 1 "GND" H 8920 8250 50  0000 C CNN
F 2 "" H 8920 8400 60  0000 C CNN
F 3 "" H 8920 8400 60  0000 C CNN
	1    8920 8400
	1    0    0    -1  
$EndComp
Wire Wire Line
	8920 8265 8920 8400
Text GLabel 7840 7965 0    47   Input ~ 0
VDD_PUMP
Wire Wire Line
	7840 7965 7935 7965
Wire Wire Line
	9970 8115 10065 8115
$Comp
L +5V #PWR033
U 1 1 5680F1CF
P 10135 7515
F 0 "#PWR033" H 10135 7365 50  0001 C CNN
F 1 "+5V" H 10135 7655 50  0000 C CNN
F 2 "" H 10135 7515 60  0000 C CNN
F 3 "" H 10135 7515 60  0000 C CNN
	1    10135 7515
	1    0    0    -1  
$EndComp
Wire Wire Line
	9970 7965 10135 7965
Wire Wire Line
	10135 7965 10135 7515
$Comp
L GND #PWR034
U 1 1 5680FFF7
P 10500 7750
F 0 "#PWR034" H 10500 7500 50  0001 C CNN
F 1 "GND" H 10500 7600 50  0000 C CNN
F 2 "" H 10500 7750 60  0000 C CNN
F 3 "" H 10500 7750 60  0000 C CNN
	1    10500 7750
	1    0    0    -1  
$EndComp
Wire Wire Line
	10200 7680 10135 7680
Connection ~ 10135 7680
Wire Wire Line
	10500 7680 10500 7750
$Comp
L GND #PWR035
U 1 1 56812089
P 10455 9045
F 0 "#PWR035" H 10455 8795 50  0001 C CNN
F 1 "GND" H 10455 8895 50  0000 C CNN
F 2 "" H 10455 9045 60  0000 C CNN
F 3 "" H 10455 9045 60  0000 C CNN
	1    10455 9045
	1    0    0    -1  
$EndComp
Wire Wire Line
	10455 8535 10455 8625
Wire Wire Line
	10750 8535 10750 8615
Wire Wire Line
	10455 8925 10455 9045
Wire Wire Line
	10150 8985 10750 8985
Wire Wire Line
	10750 8985 10750 8915
$Comp
L +5V #PWR036
U 1 1 56813296
P 10150 8475
F 0 "#PWR036" H 10150 8325 50  0001 C CNN
F 1 "+5V" H 10150 8615 50  0000 C CNN
F 2 "" H 10150 8475 60  0000 C CNN
F 3 "" H 10150 8475 60  0000 C CNN
	1    10150 8475
	1    0    0    -1  
$EndComp
Text GLabel 10980 7220 2    47   Input ~ 0
VDD_INT
$Comp
L CP1 C29
U 1 1 56829583
P 11560 7720
F 0 "C29" H 11585 7820 50  0000 L CNN
F 1 "10uF" H 11585 7620 50  0000 L CNN
F 2 "Capacitors_Tantalum_SMD:TantalC_SizeC_EIA-6032_HandSoldering" H 11560 7720 60  0001 C CNN
F 3 "" H 11560 7720 60  0000 C CNN
	1    11560 7720
	1    0    0    -1  
$EndComp
$Comp
L C C30
U 1 1 56829718
P 11855 7720
F 0 "C30" H 11880 7820 50  0000 L CNN
F 1 "100n" H 11880 7620 50  0000 L CNN
F 2 "Capacitors_SMD:C_0805_HandSoldering" H 11893 7570 30  0001 C CNN
F 3 "" H 11855 7720 60  0000 C CNN
	1    11855 7720
	1    0    0    -1  
$EndComp
$Comp
L INDUCTOR L1
U 1 1 56829878
P 12395 7570
F 0 "L1" V 12505 7575 50  0000 C CNN
F 1 "680uH" V 12330 7565 50  0000 C CNN
F 2 "Resistors_SMD:R_1210_HandSoldering" H 12395 7570 60  0001 C CNN
F 3 "" H 12395 7570 60  0000 C CNN
	1    12395 7570
	0    -1   -1   0   
$EndComp
$Comp
L D_Schottky D10
U 1 1 56829A5A
P 13165 7570
F 0 "D10" H 13165 7670 50  0000 C CNN
F 1 "BAT54" H 13165 7470 50  0000 C CNN
F 2 "Diodes_SMD:SOD-123" H 13165 7570 60  0001 C CNN
F 3 "" H 13165 7570 60  0000 C CNN
	1    13165 7570
	-1   0    0    1   
$EndComp
$Comp
L R R40
U 1 1 56829C72
P 12395 8125
F 0 "R40" V 12485 8125 50  0000 C CNN
F 1 "1K" V 12395 8125 50  0000 C CNN
F 2 "Resistors_SMD:R_0805_HandSoldering" V 12325 8125 30  0001 C CNN
F 3 "" H 12395 8125 30  0000 C CNN
	1    12395 8125
	1    0    0    -1  
$EndComp
$Comp
L R R45
U 1 1 5682A216
P 13495 7785
F 0 "R45" V 13585 7785 50  0000 C CNN
F 1 "10K" V 13495 7785 50  0000 C CNN
F 2 "Resistors_SMD:R_0805_HandSoldering" V 13425 7785 30  0001 C CNN
F 3 "" H 13495 7785 30  0000 C CNN
	1    13495 7785
	1    0    0    -1  
$EndComp
$Comp
L R R46
U 1 1 5682A3D9
P 13495 8305
F 0 "R46" V 13585 8305 50  0000 C CNN
F 1 "2K2" V 13495 8305 50  0000 C CNN
F 2 "Resistors_SMD:R_0805_HandSoldering" V 13425 8305 30  0001 C CNN
F 3 "" H 13495 8305 30  0000 C CNN
	1    13495 8305
	1    0    0    -1  
$EndComp
$Comp
L R R49
U 1 1 5682A7E7
P 14175 7785
F 0 "R49" V 14265 7785 50  0000 C CNN
F 1 "100K" V 14175 7785 50  0000 C CNN
F 2 "Resistors_SMD:R_0805_HandSoldering" V 14105 7785 30  0001 C CNN
F 3 "" H 14175 7785 30  0000 C CNN
	1    14175 7785
	1    0    0    -1  
$EndComp
$Comp
L R R50
U 1 1 5682A7ED
P 14175 8305
F 0 "R50" V 14265 8305 50  0000 C CNN
F 1 "10K" V 14175 8305 50  0000 C CNN
F 2 "Resistors_SMD:R_0805_HandSoldering" V 14105 8305 30  0001 C CNN
F 3 "" H 14175 8305 30  0000 C CNN
	1    14175 8305
	1    0    0    -1  
$EndComp
$Comp
L CP1 C31
U 1 1 5682A8AB
P 13830 7800
F 0 "C31" H 13855 7900 50  0000 L CNN
F 1 "47uF" H 13855 7700 50  0000 L CNN
F 2 "Capacitors_Tantalum_SMD:TantalC_SizeD_EIA-7343_HandSoldering" H 13830 7800 60  0001 C CNN
F 3 "" H 13830 7800 60  0000 C CNN
	1    13830 7800
	1    0    0    -1  
$EndComp
$Comp
L R R47
U 1 1 5682AA94
P 13655 8855
F 0 "R47" V 13745 8855 50  0000 C CNN
F 1 "10K" V 13655 8855 50  0000 C CNN
F 2 "Resistors_SMD:R_0805_HandSoldering" V 13585 8855 30  0001 C CNN
F 3 "" H 13655 8855 30  0000 C CNN
	1    13655 8855
	0    -1   -1   0   
$EndComp
$Comp
L R R48
U 1 1 5682AD1A
P 13825 9220
F 0 "R48" V 13915 9220 50  0000 C CNN
F 1 "10K" V 13825 9220 50  0000 C CNN
F 2 "Resistors_SMD:R_0805_HandSoldering" V 13755 9220 30  0001 C CNN
F 3 "" H 13825 9220 30  0000 C CNN
	1    13825 9220
	0    -1   -1   0   
$EndComp
$Comp
L R R51
U 1 1 5682B2DE
P 14565 8770
F 0 "R51" V 14655 8770 50  0000 C CNN
F 1 "100" V 14565 8770 50  0000 C CNN
F 2 "Resistors_SMD:R_0805_HandSoldering" V 14495 8770 30  0001 C CNN
F 3 "" H 14565 8770 30  0000 C CNN
	1    14565 8770
	1    0    0    -1  
$EndComp
Text GLabel 12395 8340 3    47   Input ~ 0
VPP_PUMP
Text GLabel 13445 8035 0    47   Input ~ 0
VPP_FBACK
Text GLabel 13445 8855 0    47   Input ~ 0
VPP_ON
Text GLabel 13600 9220 0    47   Input ~ 0
VPP_GND
Text GLabel 14645 8440 2    47   Input ~ 0
VPP_TAR
Wire Wire Line
	10865 7570 12095 7570
Connection ~ 11560 7570
Connection ~ 11855 7570
$Comp
L GND #PWR037
U 1 1 56834718
P 11560 8005
F 0 "#PWR037" H 11560 7755 50  0001 C CNN
F 1 "GND" H 11560 7855 50  0000 C CNN
F 2 "" H 11560 8005 60  0000 C CNN
F 3 "" H 11560 8005 60  0000 C CNN
	1    11560 8005
	1    0    0    -1  
$EndComp
Wire Wire Line
	11560 7870 11560 8005
Wire Wire Line
	11855 7960 11855 7870
Wire Wire Line
	11260 7960 11855 7960
Connection ~ 11560 7960
Wire Wire Line
	12550 7860 12395 7860
Wire Wire Line
	12395 7860 12395 7975
Wire Wire Line
	12395 8340 12395 8275
Wire Wire Line
	12695 7570 13015 7570
Wire Wire Line
	12850 7660 12850 7570
Connection ~ 12850 7570
$Comp
L GND #PWR038
U 1 1 56838462
P 12850 8310
F 0 "#PWR038" H 12850 8060 50  0001 C CNN
F 1 "GND" H 12850 8160 50  0000 C CNN
F 2 "" H 12850 8310 60  0000 C CNN
F 3 "" H 12850 8310 60  0000 C CNN
	1    12850 8310
	1    0    0    -1  
$EndComp
Wire Wire Line
	12850 8060 12850 8310
Wire Wire Line
	13315 7570 14565 7570
Wire Wire Line
	13495 7570 13495 7635
Wire Wire Line
	13495 8155 13495 7935
Wire Wire Line
	13445 8035 13495 8035
Connection ~ 13495 8035
Wire Wire Line
	14175 7570 14175 7635
Connection ~ 13495 7570
Wire Wire Line
	13830 7650 13830 7570
Connection ~ 13830 7570
$Comp
L GND #PWR039
U 1 1 5683E118
P 13830 7995
F 0 "#PWR039" H 13830 7745 50  0001 C CNN
F 1 "GND" H 13830 7845 50  0000 C CNN
F 2 "" H 13830 7995 60  0000 C CNN
F 3 "" H 13830 7995 60  0000 C CNN
	1    13830 7995
	1    0    0    -1  
$EndComp
Wire Wire Line
	13830 7950 13830 7995
$Comp
L GND #PWR040
U 1 1 5683EEB4
P 13495 8505
F 0 "#PWR040" H 13495 8255 50  0001 C CNN
F 1 "GND" H 13495 8355 50  0000 C CNN
F 2 "" H 13495 8505 60  0000 C CNN
F 3 "" H 13495 8505 60  0000 C CNN
	1    13495 8505
	1    0    0    -1  
$EndComp
Wire Wire Line
	13495 8455 13495 8505
Wire Wire Line
	14175 7935 14175 8155
Wire Wire Line
	14265 8055 14175 8055
Wire Wire Line
	14175 8055 14175 8050
Connection ~ 14175 8050
Wire Wire Line
	14565 7570 14565 7855
Connection ~ 14175 7570
Wire Wire Line
	14175 8455 14175 8655
Wire Wire Line
	13445 8855 13505 8855
Wire Wire Line
	13805 8855 13875 8855
$Comp
L GND #PWR041
U 1 1 56845589
P 14175 9360
F 0 "#PWR041" H 14175 9110 50  0001 C CNN
F 1 "GND" H 14175 9210 50  0000 C CNN
F 2 "" H 14175 9360 60  0000 C CNN
F 3 "" H 14175 9360 60  0000 C CNN
	1    14175 9360
	1    0    0    -1  
$EndComp
$Comp
L GND #PWR042
U 1 1 568456BD
P 14565 9490
F 0 "#PWR042" H 14565 9240 50  0001 C CNN
F 1 "GND" H 14565 9340 50  0000 C CNN
F 2 "" H 14565 9490 60  0000 C CNN
F 3 "" H 14565 9490 60  0000 C CNN
	1    14565 9490
	1    0    0    -1  
$EndComp
Wire Wire Line
	14565 9420 14565 9490
Wire Wire Line
	14175 9055 14175 9360
Wire Wire Line
	14265 9220 13975 9220
Wire Wire Line
	13675 9220 13600 9220
Wire Wire Line
	14565 8920 14565 9020
Wire Wire Line
	14565 8255 14565 8620
Wire Wire Line
	14645 8440 14565 8440
Connection ~ 14565 8440
Text GLabel 3560 1690 1    47   Input ~ 0
5V_USB_GOOD
Text GLabel 3660 1690 1    47   Input ~ 0
SUPPLY_PWR
Text GLabel 3760 1690 1    47   Input ~ 0
LVP_EN
$Comp
L C C8
U 1 1 56851176
P 4360 1265
F 0 "C8" H 4375 1535 50  0000 L CNN
F 1 "10uF" H 4335 1460 50  0000 L CNN
F 2 "Capacitors_Tantalum_SMD:TantalC_SizeC_EIA-6032_HandSoldering" H 4398 1115 30  0001 C CNN
F 3 "" H 4360 1265 60  0000 C CNN
	1    4360 1265
	1    0    0    -1  
$EndComp
NoConn ~ 4560 1745
NoConn ~ 5060 1745
Text GLabel 3860 1690 1    47   Input ~ 0
DATA_EN
Text GLabel 3960 1690 1    47   Input ~ 0
CLK_EN
Text GLabel 4060 1690 1    47   Input ~ 0
5V_USB_ON
$Comp
L +3.3V #PWR043
U 1 1 56853ADF
P 4260 1685
F 0 "#PWR043" H 4260 1535 50  0001 C CNN
F 1 "+3.3V" V 4270 1915 50  0000 C CNN
F 2 "" H 4260 1685 60  0000 C CNN
F 3 "" H 4260 1685 60  0000 C CNN
	1    4260 1685
	1    0    0    -1  
$EndComp
Wire Wire Line
	4260 1745 4260 1685
Wire Wire Line
	4360 1415 4360 1745
$Comp
L GND #PWR044
U 1 1 56854535
P 4200 1115
F 0 "#PWR044" H 4200 865 50  0001 C CNN
F 1 "GND" H 4110 1100 50  0000 C CNN
F 2 "" H 4200 1115 60  0000 C CNN
F 3 "" H 4200 1115 60  0000 C CNN
	1    4200 1115
	1    0    0    -1  
$EndComp
Wire Wire Line
	4200 1115 4360 1115
Text GLabel 5220 1655 2    47   Input ~ 0
SCK
Text GLabel 5220 1555 2    47   Input ~ 0
SDI
Text GLabel 5225 1455 2    47   Input ~ 0
SDO
Text GLabel 5225 1285 2    47   Input ~ 0
UTIL_CS1
Text GLabel 5225 1180 2    47   Input ~ 0
UTIL_WP1
Wire Wire Line
	4460 1745 4460 1180
Wire Wire Line
	4460 1180 5225 1180
Wire Wire Line
	4660 1745 4660 1285
Wire Wire Line
	4660 1285 5225 1285
Wire Wire Line
	4760 1745 4760 1455
Wire Wire Line
	4760 1455 5225 1455
Wire Wire Line
	4860 1745 4860 1555
Wire Wire Line
	4860 1555 5220 1555
Wire Wire Line
	4960 1745 4960 1655
Wire Wire Line
	4960 1655 5220 1655
Wire Wire Line
	3560 1690 3560 1745
Wire Wire Line
	3660 1690 3660 1745
Wire Wire Line
	3760 1690 3760 1745
Wire Wire Line
	3860 1690 3860 1745
Wire Wire Line
	3960 1690 3960 1745
Wire Wire Line
	4060 1690 4060 1745
NoConn ~ 5610 2295
NoConn ~ 5610 2395
NoConn ~ 5610 2695
NoConn ~ 5610 2795
NoConn ~ 4660 4270
NoConn ~ 4760 4270
NoConn ~ 4860 4270
NoConn ~ 4960 4270
NoConn ~ 5060 4270
NoConn ~ 3010 2595
NoConn ~ 3010 2695
NoConn ~ 3010 2795
NoConn ~ 3010 3695
Text GLabel 2925 2295 0    47   Input ~ 0
VPP_ON
Text GLabel 2925 2395 0    47   Input ~ 0
VPP_GND
Text GLabel 2925 2495 0    47   Input ~ 0
NVDD_GND
Text GLabel 2920 3295 0    47   Input ~ 0
VPP_PUMP
Text GLabel 2920 3395 0    47   Input ~ 0
VDD_PUMP
Text GLabel 2920 3495 0    47   Input ~ 0
VPP_FBACK
Text GLabel 2920 3595 0    47   Input ~ 0
VDD_FBACK
Text GLabel 2925 3795 0    47   Input ~ 0
VREF_2V5
Wire Wire Line
	2925 2295 3010 2295
Wire Wire Line
	2925 2395 3010 2395
Wire Wire Line
	2925 2495 3010 2495
Wire Wire Line
	2920 3295 3010 3295
Wire Wire Line
	2920 3395 3010 3395
Wire Wire Line
	2920 3495 3010 3495
Wire Wire Line
	2920 3595 3010 3595
Wire Wire Line
	2925 3795 3010 3795
Wire Wire Line
	2770 2895 3010 2895
Wire Wire Line
	2290 2895 2470 2895
$Comp
L +3.3V #PWR045
U 1 1 5686F1DB
P 1775 2835
F 0 "#PWR045" H 1775 2685 50  0001 C CNN
F 1 "+3.3V" H 1775 2975 50  0000 C CNN
F 2 "" H 1775 2835 60  0000 C CNN
F 3 "" H 1775 2835 60  0000 C CNN
	1    1775 2835
	1    0    0    -1  
$EndComp
Wire Wire Line
	1990 2895 1775 2895
Wire Wire Line
	1775 2895 1775 2835
Wire Wire Line
	1290 2280 2380 2280
Wire Wire Line
	2380 2280 2380 2895
Connection ~ 2380 2895
Wire Wire Line
	1290 2380 1940 2380
Wire Wire Line
	1940 2380 1940 2895
Connection ~ 1940 2895
$Comp
L GND #PWR046
U 1 1 5687061F
P 1535 2480
F 0 "#PWR046" H 1535 2230 50  0001 C CNN
F 1 "GND" H 1535 2330 50  0000 C CNN
F 2 "" H 1535 2480 60  0000 C CNN
F 3 "" H 1535 2480 60  0000 C CNN
	1    1535 2480
	1    0    0    -1  
$EndComp
Wire Wire Line
	1290 2480 1535 2480
NoConn ~ 1290 2780
Wire Wire Line
	1290 2580 1440 2580
Wire Wire Line
	1440 2580 1440 4455
Wire Wire Line
	1440 4455 3660 4455
Wire Wire Line
	3660 4455 3660 4270
Wire Wire Line
	1290 2680 1290 4365
Wire Wire Line
	1290 4365 3560 4365
Wire Wire Line
	3560 4365 3560 4270
$Comp
L C C2
U 1 1 56874D55
P 2345 3195
F 0 "C2" V 2415 3275 50  0000 L CNN
F 1 "100n" V 2210 3100 50  0000 L CNN
F 2 "Capacitors_SMD:C_0805_HandSoldering" H 2383 3045 30  0001 C CNN
F 3 "" H 2345 3195 60  0000 C CNN
	1    2345 3195
	0    -1   -1   0   
$EndComp
$Comp
L GND #PWR047
U 1 1 56878100
P 2920 3095
F 0 "#PWR047" H 2920 2845 50  0001 C CNN
F 1 "GND" H 2940 2955 50  0000 C CNN
F 2 "" H 2920 3095 60  0000 C CNN
F 3 "" H 2920 3095 60  0000 C CNN
	1    2920 3095
	0    1    1    0   
$EndComp
Wire Wire Line
	3010 3095 2920 3095
$Comp
L +3.3V #PWR048
U 1 1 56878599
P 2545 3195
F 0 "#PWR048" H 2545 3045 50  0001 C CNN
F 1 "+3.3V" H 2485 3335 50  0000 C CNN
F 2 "" H 2545 3195 60  0000 C CNN
F 3 "" H 2545 3195 60  0000 C CNN
	1    2545 3195
	1    0    0    -1  
$EndComp
Wire Wire Line
	2495 3195 3010 3195
Connection ~ 2545 3195
Wire Wire Line
	2195 3195 2195 3550
$Comp
L GND #PWR049
U 1 1 5687CF3F
P 2195 3550
F 0 "#PWR049" H 2195 3300 50  0001 C CNN
F 1 "GND" H 2195 3400 50  0000 C CNN
F 2 "" H 2195 3550 60  0000 C CNN
F 3 "" H 2195 3550 60  0000 C CNN
	1    2195 3550
	1    0    0    -1  
$EndComp
Text GLabel 4685 4405 2    47   Input ~ 0
POWER_GOOD
Wire Wire Line
	4685 4405 4560 4405
Wire Wire Line
	4560 4405 4560 4270
$Comp
L C_Small C10
U 1 1 5687F949
P 4460 4700
F 0 "C10" H 4470 4770 50  0000 L CNN
F 1 "100n" H 4470 4620 50  0000 L CNN
F 2 "Capacitors_SMD:C_0805_HandSoldering" H 4460 4700 60  0001 C CNN
F 3 "" H 4460 4700 60  0000 C CNN
	1    4460 4700
	1    0    0    -1  
$EndComp
$Comp
L GND #PWR050
U 1 1 5688061F
P 4460 4850
F 0 "#PWR050" H 4460 4600 50  0001 C CNN
F 1 "GND" H 4460 4700 50  0000 C CNN
F 2 "" H 4460 4850 60  0000 C CNN
F 3 "" H 4460 4850 60  0000 C CNN
	1    4460 4850
	1    0    0    -1  
$EndComp
$Comp
L GND #PWR051
U 1 1 56880E09
P 4360 4305
F 0 "#PWR051" H 4360 4055 50  0001 C CNN
F 1 "GND" H 4360 4155 50  0000 C CNN
F 2 "" H 4360 4305 60  0000 C CNN
F 3 "" H 4360 4305 60  0000 C CNN
	1    4360 4305
	1    0    0    -1  
$EndComp
$Comp
L GND #PWR052
U 1 1 56880F46
P 3860 4305
F 0 "#PWR052" H 3860 4055 50  0001 C CNN
F 1 "GND" H 3860 4155 50  0000 C CNN
F 2 "" H 3860 4305 60  0000 C CNN
F 3 "" H 3860 4305 60  0000 C CNN
	1    3860 4305
	1    0    0    -1  
$EndComp
Wire Wire Line
	3860 4270 3860 4305
Wire Wire Line
	4360 4270 4360 4305
$Comp
L C_Small C3
U 1 1 56886147
P 3480 4670
F 0 "C3" H 3295 4705 50  0000 L CNN
F 1 "1u" H 3330 4585 50  0000 L CNN
F 2 "Capacitors_SMD:C_0805_HandSoldering" H 3480 4670 60  0001 C CNN
F 3 "" H 3480 4670 60  0000 C CNN
	1    3480 4670
	1    0    0    -1  
$EndComp
$Comp
L C_Small C4
U 1 1 568862EE
P 3665 4675
F 0 "C4" H 3750 4715 50  0000 L CNN
F 1 "100n" H 3715 4605 50  0000 L CNN
F 2 "Capacitors_SMD:C_0805_HandSoldering" H 3665 4675 60  0001 C CNN
F 3 "" H 3665 4675 60  0000 C CNN
	1    3665 4675
	1    0    0    -1  
$EndComp
$Comp
L +3.3V #PWR053
U 1 1 568863FC
P 3295 4570
F 0 "#PWR053" H 3295 4420 50  0001 C CNN
F 1 "+3.3V" H 3295 4710 50  0000 C CNN
F 2 "" H 3295 4570 60  0000 C CNN
F 3 "" H 3295 4570 60  0000 C CNN
	1    3295 4570
	0    -1   -1   0   
$EndComp
Wire Wire Line
	4460 4270 4460 4600
Wire Wire Line
	4460 4800 4460 4850
$Comp
L GND #PWR054
U 1 1 56889AD8
P 3665 4890
F 0 "#PWR054" H 3665 4640 50  0001 C CNN
F 1 "GND" H 3665 4740 50  0000 C CNN
F 2 "" H 3665 4890 60  0000 C CNN
F 3 "" H 3665 4890 60  0000 C CNN
	1    3665 4890
	1    0    0    -1  
$EndComp
Wire Wire Line
	3665 4775 3665 4890
Wire Wire Line
	3480 4770 3480 4835
Wire Wire Line
	3480 4835 3665 4835
Connection ~ 3665 4835
Wire Wire Line
	3760 4570 3760 4270
Wire Wire Line
	3665 4570 3665 4575
Wire Wire Line
	3295 4570 4460 4570
Connection ~ 3480 4570
Connection ~ 3665 4570
Connection ~ 4460 4570
Connection ~ 3760 4570
$Comp
L LED D4
U 1 1 568969F6
P 4890 5100
F 0 "D4" H 4890 4910 50  0000 C CNN
F 1 "RED" H 4890 5000 50  0000 C CNN
F 2 "LEDs:LED-0805" H 4890 5100 60  0001 C CNN
F 3 "" H 4890 5100 60  0000 C CNN
	1    4890 5100
	-1   0    0    1   
$EndComp
$Comp
L LED D2
U 1 1 56896BFE
P 4885 5385
F 0 "D2" H 5130 5240 50  0000 C CNN
F 1 "YELLOW" H 5160 5335 50  0000 C CNN
F 2 "LEDs:LED-0805" H 4885 5385 60  0001 C CNN
F 3 "" H 4885 5385 60  0000 C CNN
	1    4885 5385
	-1   0    0    1   
$EndComp
$Comp
L LED D3
U 1 1 56896DAA
P 4885 5660
F 0 "D3" H 5160 5515 50  0000 C CNN
F 1 "ORANGE" H 5175 5615 50  0000 C CNN
F 2 "LEDs:LED-0805" H 4885 5660 60  0001 C CNN
F 3 "" H 4885 5660 60  0000 C CNN
	1    4885 5660
	-1   0    0    1   
$EndComp
$Comp
L R R12
U 1 1 5689A45E
P 5355 5100
F 0 "R12" V 5270 5090 50  0000 C CNN
F 1 "470" V 5355 5100 50  0000 C CNN
F 2 "Resistors_SMD:R_0805_HandSoldering" V 5285 5100 30  0001 C CNN
F 3 "" H 5355 5100 30  0000 C CNN
	1    5355 5100
	0    1    1    0   
$EndComp
$Comp
L R R13
U 1 1 5689AAD5
P 5355 5385
F 0 "R13" V 5275 5375 50  0000 C CNN
F 1 "470" V 5355 5385 50  0000 C CNN
F 2 "Resistors_SMD:R_0805_HandSoldering" V 5285 5385 30  0001 C CNN
F 3 "" H 5355 5385 30  0000 C CNN
	1    5355 5385
	0    1    1    0   
$EndComp
$Comp
L R R14
U 1 1 5689AC82
P 5355 5660
F 0 "R14" V 5280 5650 50  0000 C CNN
F 1 "470" V 5355 5660 50  0000 C CNN
F 2 "Resistors_SMD:R_0805_HandSoldering" V 5285 5660 30  0001 C CNN
F 3 "" H 5355 5660 30  0000 C CNN
	1    5355 5660
	0    1    1    0   
$EndComp
Wire Wire Line
	4260 4270 4260 5100
Wire Wire Line
	4260 5100 4690 5100
Wire Wire Line
	4160 4270 4160 5385
Wire Wire Line
	4160 5385 4685 5385
Wire Wire Line
	4060 4270 4060 5660
Wire Wire Line
	4060 5660 4685 5660
$Comp
L R R6
U 1 1 5689F00A
P 4200 5940
F 0 "R6" V 4300 5935 50  0000 C CNN
F 1 "33" V 4200 5940 50  0000 C CNN
F 2 "Resistors_SMD:R_0805_HandSoldering" V 4130 5940 30  0001 C CNN
F 3 "" H 4200 5940 30  0000 C CNN
	1    4200 5940
	0    1    1    0   
$EndComp
Wire Wire Line
	5085 5660 5205 5660
$Comp
L SW_PUSH SW1
U 1 1 568A5FF2
P 4825 5940
F 0 "SW1" H 4975 6050 50  0000 C CNN
F 1 "SW_PUSH" H 4825 5860 50  0001 C CNN
F 2 "Buttons_Switches_SMD:SW_SPST_PTS645" H 4825 5940 60  0001 C CNN
F 3 "" H 4825 5940 60  0000 C CNN
	1    4825 5940
	1    0    0    -1  
$EndComp
$Comp
L R R9
U 1 1 568A7E9D
P 4665 6455
F 0 "R9" V 4760 6455 50  0000 C CNN
F 1 "10K" V 4665 6455 50  0000 C CNN
F 2 "Resistors_SMD:R_0805_HandSoldering" V 4595 6455 30  0001 C CNN
F 3 "" H 4665 6455 30  0000 C CNN
	1    4665 6455
	0    1    1    0   
$EndComp
$Comp
L C_Small C11
U 1 1 568A806F
P 4620 6235
F 0 "C11" H 4630 6305 50  0000 L CNN
F 1 "100n" H 4630 6155 50  0000 L CNN
F 2 "Capacitors_SMD:C_0805_HandSoldering" H 4620 6235 60  0001 C CNN
F 3 "" H 4620 6235 60  0000 C CNN
	1    4620 6235
	0    -1   -1   0   
$EndComp
$Comp
L +3.3V #PWR055
U 1 1 568A839E
P 5065 6445
F 0 "#PWR055" H 5065 6295 50  0001 C CNN
F 1 "+3.3V" H 5065 6585 50  0000 C CNN
F 2 "" H 5065 6445 60  0000 C CNN
F 3 "" H 5065 6445 60  0000 C CNN
	1    5065 6445
	1    0    0    -1  
$EndComp
$Comp
L GND #PWR056
U 1 1 568A867C
P 5505 6265
F 0 "#PWR056" H 5505 6015 50  0001 C CNN
F 1 "GND" H 5505 6115 50  0000 C CNN
F 2 "" H 5505 6265 60  0000 C CNN
F 3 "" H 5505 6265 60  0000 C CNN
	1    5505 6265
	1    0    0    -1  
$EndComp
Wire Wire Line
	3960 4270 3960 5940
Wire Wire Line
	3960 5940 4050 5940
Wire Wire Line
	4350 5940 4525 5940
Wire Wire Line
	4520 6235 4430 6235
Wire Wire Line
	4430 5940 4430 6455
Connection ~ 4430 5940
Wire Wire Line
	4430 6455 4515 6455
Connection ~ 4430 6235
Wire Wire Line
	4815 6455 5065 6455
Wire Wire Line
	5065 6455 5065 6445
Wire Wire Line
	5505 5100 5505 6265
Wire Wire Line
	4720 6235 5505 6235
Connection ~ 5505 6235
Wire Wire Line
	5125 5940 5505 5940
Connection ~ 5505 5940
Connection ~ 5505 5660
Connection ~ 5505 5385
Wire Wire Line
	5090 5100 5205 5100
Wire Wire Line
	5085 5385 5205 5385
Text GLabel 5685 2495 2    47   Input ~ 0
UTIL_SDO
Text GLabel 5685 2595 2    47   Input ~ 0
UTIL_SDI
Text GLabel 5685 2895 2    47   Input ~ 0
UTIL_SCK
$Comp
L GND #PWR057
U 1 1 568BA470
P 5675 2995
F 0 "#PWR057" H 5675 2745 50  0001 C CNN
F 1 "GND" V 5675 2810 50  0000 C CNN
F 2 "" H 5675 2995 60  0000 C CNN
F 3 "" H 5675 2995 60  0000 C CNN
	1    5675 2995
	0    -1   -1   0   
$EndComp
Wire Wire Line
	5610 2995 5675 2995
Wire Wire Line
	5610 2895 5685 2895
Wire Wire Line
	5610 2495 5685 2495
Wire Wire Line
	5610 2595 5685 2595
$Comp
L C_Small C13
U 1 1 568C1429
P 6305 2920
F 0 "C13" H 6150 2995 50  0000 L CNN
F 1 "22p" H 6160 2835 50  0000 L CNN
F 2 "Capacitors_SMD:C_0805_HandSoldering" H 6305 2920 60  0001 C CNN
F 3 "" H 6305 2920 60  0000 C CNN
	1    6305 2920
	1    0    0    -1  
$EndComp
$Comp
L C_Small C16
U 1 1 568C15EB
P 6690 2920
F 0 "C16" H 6715 3005 50  0000 L CNN
F 1 "22p" H 6700 2840 50  0000 L CNN
F 2 "Capacitors_SMD:C_0805_HandSoldering" H 6690 2920 60  0001 C CNN
F 3 "" H 6690 2920 60  0000 C CNN
	1    6690 2920
	1    0    0    -1  
$EndComp
Wire Wire Line
	6305 2820 6305 2765
Wire Wire Line
	6305 2765 6690 2765
Wire Wire Line
	6690 2765 6690 2820
$Comp
L GND #PWR058
U 1 1 568C2212
P 6495 2725
F 0 "#PWR058" H 6495 2475 50  0001 C CNN
F 1 "GND" H 6495 2575 50  0000 C CNN
F 2 "" H 6495 2725 60  0000 C CNN
F 3 "" H 6495 2725 60  0000 C CNN
	1    6495 2725
	-1   0    0    1   
$EndComp
Wire Wire Line
	6495 2725 6495 2765
Connection ~ 6495 2765
Wire Wire Line
	5610 3095 6420 3095
Wire Wire Line
	6305 3020 6305 3095
Connection ~ 6305 3095
Wire Wire Line
	5610 3195 6690 3195
Wire Wire Line
	6690 3195 6690 3020
Wire Wire Line
	6620 3095 6690 3095
Wire Wire Line
	6690 3095 6690 3090
Connection ~ 6690 3090
Wire Wire Line
	5610 3495 6465 3495
Wire Wire Line
	6465 3495 6465 3650
Wire Wire Line
	5610 3395 6565 3395
Wire Wire Line
	6565 3395 6565 3650
Text GLabel 6335 3565 0    47   Input ~ 0
VBUS
$Comp
L GND #PWR059
U 1 1 568CE4FF
P 6965 4140
F 0 "#PWR059" H 6965 3890 50  0001 C CNN
F 1 "GND" H 6965 3990 50  0000 C CNN
F 2 "" H 6965 4140 60  0000 C CNN
F 3 "" H 6965 4140 60  0000 C CNN
	1    6965 4140
	1    0    0    -1  
$EndComp
Wire Wire Line
	6965 3650 6965 4140
Connection ~ 6965 4050
Text GLabel 5655 3695 2    47   Input ~ 0
VBUS_DEVICE
Text GLabel 5655 3795 2    47   Input ~ 0
LVP
Wire Wire Line
	5610 3795 5655 3795
Wire Wire Line
	5610 3695 5655 3695
Wire Wire Line
	6365 3650 6365 3565
Wire Wire Line
	6365 3565 6335 3565
$Comp
L C_Small C12
U 1 1 568D2467
P 5955 3295
F 0 "C12" V 6005 3405 50  0000 L CNN
F 1 "100n" V 5915 3350 50  0000 L CNN
F 2 "Capacitors_SMD:C_0805_HandSoldering" H 5955 3295 60  0001 C CNN
F 3 "" H 5955 3295 60  0000 C CNN
	1    5955 3295
	0    -1   -1   0   
$EndComp
$Comp
L +3.3V #PWR060
U 1 1 568D2986
P 5725 3595
F 0 "#PWR060" H 5725 3445 50  0001 C CNN
F 1 "+3.3V" V 5690 3785 50  0000 C CNN
F 2 "" H 5725 3595 60  0000 C CNN
F 3 "" H 5725 3595 60  0000 C CNN
	1    5725 3595
	0    1    1    0   
$EndComp
Wire Wire Line
	5610 3595 5725 3595
Wire Wire Line
	5610 3295 5855 3295
Wire Wire Line
	5660 3595 5660 3295
Connection ~ 5660 3295
Connection ~ 5660 3595
$Comp
L GND #PWR061
U 1 1 568D486F
P 6115 3295
F 0 "#PWR061" H 6115 3045 50  0001 C CNN
F 1 "GND" H 6115 3145 50  0000 C CNN
F 2 "" H 6115 3295 60  0000 C CNN
F 3 "" H 6115 3295 60  0000 C CNN
	1    6115 3295
	0    -1   -1   0   
$EndComp
Wire Wire Line
	6055 3295 6115 3295
$Comp
L Q_PNP_BEC Q7
U 1 1 567B1EC6
P 14465 8055
F 0 "Q7" H 14765 8105 50  0000 R CNN
F 1 "MMBT3906" H 15065 8005 50  0000 R CNN
F 2 "TO_SOT_Packages_SMD:SOT-23_Handsoldering" H 14665 8155 29  0001 C CNN
F 3 "" H 14465 8055 60  0000 C CNN
	1    14465 8055
	1    0    0    1   
$EndComp
$Comp
L Q_NPN_BEC Q8
U 1 1 567B25A2
P 14465 9220
F 0 "Q8" H 14765 9270 50  0000 R CNN
F 1 "MMBT3904" H 15065 9170 50  0000 R CNN
F 2 "TO_SOT_Packages_SMD:SOT-23_Handsoldering" H 14665 9320 29  0001 C CNN
F 3 "" H 14465 9220 60  0000 C CNN
	1    14465 9220
	1    0    0    -1  
$EndComp
$Comp
L Q_NPN_BEC Q6
U 1 1 567B7341
P 14075 8855
F 0 "Q6" H 14100 9120 50  0000 R CNN
F 1 "MMBT3904" H 14145 9020 50  0000 R CNN
F 2 "TO_SOT_Packages_SMD:SOT-23_Handsoldering" H 14275 8955 29  0001 C CNN
F 3 "" H 14075 8855 60  0000 C CNN
	1    14075 8855
	1    0    0    -1  
$EndComp
$Comp
L Q_NPN_BEC Q5
U 1 1 567B9885
P 12750 7860
F 0 "Q5" H 13050 7910 50  0000 R CNN
F 1 "MMBT3904" H 13350 7810 50  0000 R CNN
F 2 "TO_SOT_Packages_SMD:SOT-23_Handsoldering" H 12950 7960 29  0001 C CNN
F 3 "" H 12750 7860 60  0000 C CNN
	1    12750 7860
	1    0    0    -1  
$EndComp
$Comp
L Q_PNP_BEC Q3
U 1 1 567BDD3E
P 10450 9895
F 0 "Q3" H 10410 10075 50  0000 R CNN
F 1 "MMBT3906" H 10540 10175 50  0000 R CNN
F 2 "TO_SOT_Packages_SMD:SOT-23_Handsoldering" H 10650 9995 29  0001 C CNN
F 3 "" H 10450 9895 60  0000 C CNN
	1    10450 9895
	-1   0    0    1   
$EndComp
$Comp
L Q_NPN_BEC Q2
U 1 1 567BFEDB
P 9510 10095
F 0 "Q2" H 9410 10360 50  0000 R CNN
F 1 "MMBT3904" H 9520 10260 50  0000 R CNN
F 2 "TO_SOT_Packages_SMD:SOT-23_Handsoldering" H 9710 10195 29  0001 C CNN
F 3 "" H 9510 10095 60  0000 C CNN
	1    9510 10095
	-1   0    0    -1  
$EndComp
$Comp
L Q_NPN_BEC Q1
U 1 1 567C6F62
P 2530 10000
F 0 "Q1" H 2450 9840 50  0000 R CNN
F 1 "MMBT3904" H 2630 9730 50  0000 R CNN
F 2 "TO_SOT_Packages_SMD:SOT-23_Handsoldering" H 2730 10100 29  0001 C CNN
F 3 "" H 2530 10000 60  0000 C CNN
	1    2530 10000
	1    0    0    -1  
$EndComp
Wire Wire Line
	6965 3650 6765 3650
NoConn ~ 6665 3650
$Comp
L 25LC256 U11
U 1 1 5683DE2F
P 13695 3645
F 0 "U11" H 13695 3970 60  0000 C CNB
F 1 "SST25VF040B" H 13680 3330 60  0000 C CNB
F 2 "Housings_SOIC:SOIC-8_3.9x4.9mm_Pitch1.27mm" H 13695 3645 60  0001 C CNN
F 3 "" H 13695 3645 60  0000 C CNN
	1    13695 3645
	1    0    0    -1  
$EndComp
$Comp
L C C33
U 1 1 5683DE35
P 14630 4125
F 0 "C33" H 14655 4225 50  0000 L CNN
F 1 "100n" H 14655 4025 50  0000 L CNN
F 2 "Capacitors_SMD:C_0805_HandSoldering" H 14668 3975 30  0001 C CNN
F 3 "" H 14630 4125 60  0000 C CNN
	1    14630 4125
	1    0    0    -1  
$EndComp
$Comp
L R R44
U 1 1 5683DE3B
P 13345 3255
F 0 "R44" V 13425 3255 50  0000 C CNN
F 1 "10K" V 13345 3255 50  0000 C CNN
F 2 "Resistors_SMD:R_0805_HandSoldering" V 13275 3255 30  0001 C CNN
F 3 "" H 13345 3255 30  0000 C CNN
	1    13345 3255
	0    -1   -1   0   
$EndComp
$Comp
L R R41
U 1 1 5683DE41
P 12965 3900
F 0 "R41" V 12875 3900 50  0000 C CNN
F 1 "1K" V 12965 3900 50  0000 C CNN
F 2 "Resistors_SMD:R_0805_HandSoldering" V 12895 3900 30  0001 C CNN
F 3 "" H 12965 3900 30  0000 C CNN
	1    12965 3900
	1    0    0    -1  
$EndComp
$Comp
L +3.3V #PWR062
U 1 1 5683DE47
P 14825 3410
F 0 "#PWR062" H 14825 3260 50  0001 C CNN
F 1 "+3.3V" H 14825 3550 50  0000 C CNN
F 2 "" H 14825 3410 60  0000 C CNN
F 3 "" H 14825 3410 60  0000 C CNN
	1    14825 3410
	1    0    0    -1  
$EndComp
Wire Wire Line
	14170 3445 14825 3445
Wire Wire Line
	14825 3445 14825 3410
Text GLabel 14800 3695 2    47   Input ~ 0
UTIL_SCK
Text GLabel 14800 3820 2    47   Input ~ 0
UTIL_SDO
Wire Wire Line
	14170 3695 14800 3695
Wire Wire Line
	14800 3820 14170 3820
Wire Wire Line
	14630 3975 14630 3445
Connection ~ 14630 3445
Wire Wire Line
	13195 3445 13195 3255
Wire Wire Line
	13495 3255 14290 3255
Wire Wire Line
	14290 3255 14290 3570
Connection ~ 14290 3445
Text GLabel 13100 3445 0    47   Input ~ 0
UTIL_CS2
Wire Wire Line
	13100 3445 13195 3445
Text GLabel 13100 3570 0    47   Input ~ 0
UTIL_SDI
Wire Wire Line
	13195 3570 13100 3570
$Comp
L GND #PWR063
U 1 1 5683DE5D
P 14630 4345
F 0 "#PWR063" H 14630 4095 50  0001 C CNN
F 1 "GND" H 14630 4195 50  0000 C CNN
F 2 "" H 14630 4345 60  0000 C CNN
F 3 "" H 14630 4345 60  0000 C CNN
	1    14630 4345
	1    0    0    -1  
$EndComp
$Comp
L GND #PWR064
U 1 1 5683DE63
P 12965 4140
F 0 "#PWR064" H 12965 3890 50  0001 C CNN
F 1 "GND" H 12965 3990 50  0000 C CNN
F 2 "" H 12965 4140 60  0000 C CNN
F 3 "" H 12965 4140 60  0000 C CNN
	1    12965 4140
	1    0    0    -1  
$EndComp
Text GLabel 12815 3695 0    47   Input ~ 0
UTIL_WP2
Wire Wire Line
	14630 4275 14630 4345
Wire Wire Line
	14290 3570 14170 3570
Text GLabel 4160 1690 1    47   Input ~ 0
UTIL_WP2
Wire Wire Line
	4160 1690 4160 1745
Text GLabel 2980 2995 0    47   Input ~ 0
UTIL_CS2
Wire Wire Line
	2980 2995 3010 2995
Text Notes 13205 1300 0    98   ~ 20
SERIAL EEPROM
Text Notes 13260 4240 0    98   ~ 20
CODE IMAGE
Text Notes 11420 5400 0    98   ~ 20
TARGET PROGRAMMING HEADER
Text Notes 12405 7300 0    98   ~ 20
VOLTAGE BOOST
Text Notes 8915 1085 0    98   ~ 20
LEVEL SHIFTERS
Text Notes 6785 5500 0    98   ~ 20
2.5V REFERENCE
Text Notes 1770 6640 0    98   ~ 20
3.3V REGULATOR
Text Notes 4405 10745 0    98   ~ 20
TARGET POWER SWITCHING
Text Notes 8635 7145 0    98   ~ 20
TARGET POWER REGULATION
Text Notes 7085 6360 0    47   ~ 9
Caps max. 5mm\naway from chip
Text Notes 4270 8435 0    47   ~ 9
low ESR\n(<1 Ohm)
Text Notes 1045 7920 0    47   ~ 9
not more\nthan 10uF
Text Notes 3990 980  0    47   ~ 9
Ceramic or\nTantalum
Text Notes 7450 10360 0    47   ~ 9
set limit\nto 500mA
Text Notes 2725 7040 0    47   ~ 9
sense line only
Text Notes 3550 10060 0    47   ~ 9
Ceramic
Text Notes 1015 2015 0    47   ~ 9
Pickit Programming Header:\nonly needed to load the\ninitial Pickit 3 firmware
Wire Wire Line
	12815 3695 13195 3695
Wire Wire Line
	12965 3750 12965 3695
Connection ~ 12965 3695
Wire Wire Line
	12965 4140 12965 4050
Wire Wire Line
	13195 3820 13135 3820
Wire Wire Line
	13135 3820 13135 4105
Wire Wire Line
	13135 4105 12965 4105
Connection ~ 12965 4105
Wire Wire Line
	12825 1950 13185 1950
Wire Wire Line
	12970 2030 12970 1950
Connection ~ 12970 1950
Wire Wire Line
	12970 2440 12970 2330
Wire Wire Line
	13185 2075 13115 2075
Wire Wire Line
	13115 2075 13115 2400
Wire Wire Line
	13115 2400 12970 2400
Connection ~ 12970 2400
Wire Wire Line
	10365 8115 10565 8115
$Comp
L CP1 C26
U 1 1 567F44F3
P 10150 8775
F 0 "C26" H 10175 8875 50  0000 L CNN
F 1 "10uF" H 10175 8675 50  0000 L CNN
F 2 "Capacitors_Tantalum_SMD:TantalC_SizeC_EIA-6032_HandSoldering" H 10150 8775 60  0001 C CNN
F 3 "" H 10150 8775 60  0000 C CNN
	1    10150 8775
	1    0    0    -1  
$EndComp
Wire Wire Line
	10150 8925 10150 8985
Connection ~ 10455 8985
Wire Wire Line
	10455 8985 10460 8985
Wire Wire Line
	10865 8535 10865 8315
Wire Wire Line
	10150 8535 10865 8535
Connection ~ 10750 8535
Wire Wire Line
	10150 8475 10150 8625
Connection ~ 10455 8535
Connection ~ 10150 8535
Wire Wire Line
	8625 7220 10980 7220
Wire Wire Line
	8625 7220 8625 7530
Wire Wire Line
	10865 7915 10865 7220
Connection ~ 10865 7220
Wire Wire Line
	11260 7570 11260 7635
Wire Wire Line
	11260 7935 11260 7960
Connection ~ 10865 7570
Connection ~ 11260 7570
Text Notes 12140 10360 0    197  ~ 39
Pickit 3
Wire Wire Line
	1825 6920 1825 7415
Connection ~ 1825 7415
Wire Wire Line
	1935 7615 1780 7615
Wire Wire Line
	1780 7615 1780 7415
Connection ~ 1780 7415
Wire Wire Line
	1935 7515 1875 7515
Wire Wire Line
	1875 7515 1875 7415
Connection ~ 1875 7415
$EndSCHEMATC
